LAB3/simulation/qsim/LAB3.msim.vcd
$comment
	File created using the following command:
		vcd file LAB3.msim.vcd -direction
$end
$date
	Wed Oct 19 23:09:12 2022
$end
$version
	ModelSim Version 10.5b
$end
$timescale
	1ps
$end

$scope module lab3_vhd_vec_tst $end
$var wire 1 ! Clear $end
$var wire 1 " HEX0a $end
$var wire 1 # HEX0b $end
$var wire 1 $ HEX0c $end
$var wire 1 % HEX0d $end
$var wire 1 & HEX0e $end
$var wire 1 ' HEX0f $end
$var wire 1 ( HEX0g $end
$var wire 1 ) HEX1a $end
$var wire 1 * HEX1b $end
$var wire 1 + HEX1c $end
$var wire 1 , HEX1d $end
$var wire 1 - HEX1e $end
$var wire 1 . HEX1f $end
$var wire 1 / HEX1g $end
$var wire 1 0 HEX4a $end
$var wire 1 1 HEX4b $end
$var wire 1 2 HEX4c $end
$var wire 1 3 HEX4d $end
$var wire 1 4 HEX4e $end
$var wire 1 5 HEX4f $end
$var wire 1 6 HEX4g $end
$var wire 1 7 HEX5a $end
$var wire 1 8 HEX5b $end
$var wire 1 9 HEX5c $end
$var wire 1 : HEX5d $end
$var wire 1 ; HEX5e $end
$var wire 1 < HEX5f $end
$var wire 1 = HEX5g $end
$var wire 1 > LED0 $end
$var wire 1 ? LED1 $end
$var wire 1 @ LED2 $end
$var wire 1 A LED3 $end
$var wire 1 B LED4 $end
$var wire 1 C LED5 $end
$var wire 1 D LED6 $end
$var wire 1 E LED7 $end
$var wire 1 F Load $end
$var wire 1 G Shift $end
$var wire 1 H ShiftLoad $end
$var wire 1 I SW0 $end
$var wire 1 J SW1 $end
$var wire 1 K SW2 $end
$var wire 1 L SW3 $end
$var wire 1 M SW4 $end
$var wire 1 N SW5 $end
$var wire 1 O SW6 $end
$var wire 1 P SW7 $end

$scope module i1 $end
$var wire 1 Q gnd $end
$var wire 1 R vcc $end
$var wire 1 S unknown $end
$var wire 1 T devoe $end
$var wire 1 U devclrn $end
$var wire 1 V devpor $end
$var wire 1 W ww_devoe $end
$var wire 1 X ww_devclrn $end
$var wire 1 Y ww_devpor $end
$var wire 1 Z ww_HEX5a $end
$var wire 1 [ ww_SW2 $end
$var wire 1 \ ww_SW3 $end
$var wire 1 ] ww_SW0 $end
$var wire 1 ^ ww_SW1 $end
$var wire 1 _ ww_SW4 $end
$var wire 1 ` ww_SW5 $end
$var wire 1 a ww_SW6 $end
$var wire 1 b ww_SW7 $end
$var wire 1 c ww_ShiftLoad $end
$var wire 1 d ww_Clear $end
$var wire 1 e ww_Shift $end
$var wire 1 f ww_Load $end
$var wire 1 g ww_HEX5b $end
$var wire 1 h ww_HEX5c $end
$var wire 1 i ww_HEX5d $end
$var wire 1 j ww_HEX5e $end
$var wire 1 k ww_HEX5f $end
$var wire 1 l ww_HEX5g $end
$var wire 1 m ww_HEX4a $end
$var wire 1 n ww_HEX4b $end
$var wire 1 o ww_HEX4c $end
$var wire 1 p ww_HEX4d $end
$var wire 1 q ww_HEX4e $end
$var wire 1 r ww_HEX4f $end
$var wire 1 s ww_HEX4g $end
$var wire 1 t ww_LED0 $end
$var wire 1 u ww_LED1 $end
$var wire 1 v ww_LED2 $end
$var wire 1 w ww_LED3 $end
$var wire 1 x ww_LED4 $end
$var wire 1 y ww_LED5 $end
$var wire 1 z ww_LED6 $end
$var wire 1 { ww_LED7 $end
$var wire 1 | ww_HEX1a $end
$var wire 1 } ww_HEX1b $end
$var wire 1 ~ ww_HEX1c $end
$var wire 1 !! ww_HEX1d $end
$var wire 1 "! ww_HEX1e $end
$var wire 1 #! ww_HEX1f $end
$var wire 1 $! ww_HEX1g $end
$var wire 1 %! ww_HEX0a $end
$var wire 1 &! ww_HEX0b $end
$var wire 1 '! ww_HEX0c $end
$var wire 1 (! ww_HEX0d $end
$var wire 1 )! ww_HEX0e $end
$var wire 1 *! ww_HEX0f $end
$var wire 1 +! ww_HEX0g $end
$var wire 1 ,! \~QUARTUS_CREATED_ADC1~_CHSEL_bus\ [4] $end
$var wire 1 -! \~QUARTUS_CREATED_ADC1~_CHSEL_bus\ [3] $end
$var wire 1 .! \~QUARTUS_CREATED_ADC1~_CHSEL_bus\ [2] $end
$var wire 1 /! \~QUARTUS_CREATED_ADC1~_CHSEL_bus\ [1] $end
$var wire 1 0! \~QUARTUS_CREATED_ADC1~_CHSEL_bus\ [0] $end
$var wire 1 1! \~QUARTUS_CREATED_ADC2~_CHSEL_bus\ [4] $end
$var wire 1 2! \~QUARTUS_CREATED_ADC2~_CHSEL_bus\ [3] $end
$var wire 1 3! \~QUARTUS_CREATED_ADC2~_CHSEL_bus\ [2] $end
$var wire 1 4! \~QUARTUS_CREATED_ADC2~_CHSEL_bus\ [1] $end
$var wire 1 5! \~QUARTUS_CREATED_ADC2~_CHSEL_bus\ [0] $end
$var wire 1 6! \inst7|inst2~clkctrl_INCLK_bus\ [3] $end
$var wire 1 7! \inst7|inst2~clkctrl_INCLK_bus\ [2] $end
$var wire 1 8! \inst7|inst2~clkctrl_INCLK_bus\ [1] $end
$var wire 1 9! \inst7|inst2~clkctrl_INCLK_bus\ [0] $end
$var wire 1 :! \Shift~inputclkctrl_INCLK_bus\ [3] $end
$var wire 1 ;! \Shift~inputclkctrl_INCLK_bus\ [2] $end
$var wire 1 <! \Shift~inputclkctrl_INCLK_bus\ [1] $end
$var wire 1 =! \Shift~inputclkctrl_INCLK_bus\ [0] $end
$var wire 1 >! \Clear~inputclkctrl_INCLK_bus\ [3] $end
$var wire 1 ?! \Clear~inputclkctrl_INCLK_bus\ [2] $end
$var wire 1 @! \Clear~inputclkctrl_INCLK_bus\ [1] $end
$var wire 1 A! \Clear~inputclkctrl_INCLK_bus\ [0] $end
$var wire 1 B! \~QUARTUS_CREATED_GND~I_combout\ $end
$var wire 1 C! \~QUARTUS_CREATED_UNVM~~busy\ $end
$var wire 1 D! \~QUARTUS_CREATED_ADC1~~eoc\ $end
$var wire 1 E! \~QUARTUS_CREATED_ADC2~~eoc\ $end
$var wire 1 F! \HEX5a~output_o\ $end
$var wire 1 G! \HEX5b~output_o\ $end
$var wire 1 H! \HEX5c~output_o\ $end
$var wire 1 I! \HEX5d~output_o\ $end
$var wire 1 J! \HEX5e~output_o\ $end
$var wire 1 K! \HEX5f~output_o\ $end
$var wire 1 L! \HEX5g~output_o\ $end
$var wire 1 M! \HEX4a~output_o\ $end
$var wire 1 N! \HEX4b~output_o\ $end
$var wire 1 O! \HEX4c~output_o\ $end
$var wire 1 P! \HEX4d~output_o\ $end
$var wire 1 Q! \HEX4e~output_o\ $end
$var wire 1 R! \HEX4f~output_o\ $end
$var wire 1 S! \HEX4g~output_o\ $end
$var wire 1 T! \LED0~output_o\ $end
$var wire 1 U! \LED1~output_o\ $end
$var wire 1 V! \LED2~output_o\ $end
$var wire 1 W! \LED3~output_o\ $end
$var wire 1 X! \LED4~output_o\ $end
$var wire 1 Y! \LED5~output_o\ $end
$var wire 1 Z! \LED6~output_o\ $end
$var wire 1 [! \LED7~output_o\ $end
$var wire 1 \! \HEX1a~output_o\ $end
$var wire 1 ]! \HEX1b~output_o\ $end
$var wire 1 ^! \HEX1c~output_o\ $end
$var wire 1 _! \HEX1d~output_o\ $end
$var wire 1 `! \HEX1e~output_o\ $end
$var wire 1 a! \HEX1f~output_o\ $end
$var wire 1 b! \HEX1g~output_o\ $end
$var wire 1 c! \HEX0a~output_o\ $end
$var wire 1 d! \HEX0b~output_o\ $end
$var wire 1 e! \HEX0c~output_o\ $end
$var wire 1 f! \HEX0d~output_o\ $end
$var wire 1 g! \HEX0e~output_o\ $end
$var wire 1 h! \HEX0f~output_o\ $end
$var wire 1 i! \HEX0g~output_o\ $end
$var wire 1 j! \Shift~input_o\ $end
$var wire 1 k! \Shift~inputclkctrl_outclk\ $end
$var wire 1 l! \ShiftLoad~input_o\ $end
$var wire 1 m! \Load~input_o\ $end
$var wire 1 n! \inst7|inst2~combout\ $end
$var wire 1 o! \inst7|inst2~clkctrl_outclk\ $end
$var wire 1 p! \SW2~input_o\ $end
$var wire 1 q! \SW4~input_o\ $end
$var wire 1 r! \SW7~input_o\ $end
$var wire 1 s! \inst2|inst7~feeder_combout\ $end
$var wire 1 t! \Clear~input_o\ $end
$var wire 1 u! \Clear~inputclkctrl_outclk\ $end
$var wire 1 v! \inst2|inst7~q\ $end
$var wire 1 w! \SW6~input_o\ $end
$var wire 1 x! \inst2|inst100|inst2~0_combout\ $end
$var wire 1 y! \inst2|inst8~q\ $end
$var wire 1 z! \SW5~input_o\ $end
$var wire 1 {! \inst2|inst101|inst2~0_combout\ $end
$var wire 1 |! \inst2|inst9~q\ $end
$var wire 1 }! \inst2|inst102|inst2~0_combout\ $end
$var wire 1 ~! \inst2|inst10~q\ $end
$var wire 1 !" \SW3~input_o\ $end
$var wire 1 "" \inst2|inst15|inst2~0_combout\ $end
$var wire 1 #" \inst2|inst11~q\ $end
$var wire 1 $" \inst2|inst16|inst2~0_combout\ $end
$var wire 1 %" \inst2|inst12~q\ $end
$var wire 1 &" \SW1~input_o\ $end
$var wire 1 '" \inst2|inst17|inst2~0_combout\ $end
$var wire 1 (" \inst2|inst13~q\ $end
$var wire 1 )" \SW0~input_o\ $end
$var wire 1 *" \inst2|inst18|inst2~0_combout\ $end
$var wire 1 +" \inst2|inst14~q\ $end
$var wire 1 ," \inst|inst~q\ $end
$var wire 1 -" \inst|inst1~q\ $end
$var wire 1 ." \inst|inst2~q\ $end
$var wire 1 /" \inst|inst3~feeder_combout\ $end
$var wire 1 0" \inst|inst3~q\ $end
$var wire 1 1" \inst5|h0~0_combout\ $end
$var wire 1 2" \inst5|h1~0_combout\ $end
$var wire 1 3" \inst5|h2~0_combout\ $end
$var wire 1 4" \inst5|h3~0_combout\ $end
$var wire 1 5" \inst5|h4~0_combout\ $end
$var wire 1 6" \inst5|h5~0_combout\ $end
$var wire 1 7" \inst5|h6~combout\ $end
$var wire 1 8" \inst|inst4~feeder_combout\ $end
$var wire 1 9" \inst|inst4~q\ $end
$var wire 1 :" \inst|inst5~feeder_combout\ $end
$var wire 1 ;" \inst|inst5~q\ $end
$var wire 1 <" \inst|inst6~feeder_combout\ $end
$var wire 1 =" \inst|inst6~q\ $end
$var wire 1 >" \inst|inst100~feeder_combout\ $end
$var wire 1 ?" \inst|inst100~q\ $end
$var wire 1 @" \inst4|h0~0_combout\ $end
$var wire 1 A" \inst4|h1~0_combout\ $end
$var wire 1 B" \inst4|h2~0_combout\ $end
$var wire 1 C" \inst4|h3~0_combout\ $end
$var wire 1 D" \inst4|h4~0_combout\ $end
$var wire 1 E" \inst4|h5~0_combout\ $end
$var wire 1 F" \inst4|h6~combout\ $end
$var wire 1 G" \inst3|h0~0_combout\ $end
$var wire 1 H" \inst3|h1~0_combout\ $end
$var wire 1 I" \inst3|h2~0_combout\ $end
$var wire 1 J" \inst3|h3~0_combout\ $end
$var wire 1 K" \inst3|h4~0_combout\ $end
$var wire 1 L" \inst3|h5~0_combout\ $end
$var wire 1 M" \inst3|h6~combout\ $end
$var wire 1 N" \inst1|h0~0_combout\ $end
$var wire 1 O" \inst1|h1~0_combout\ $end
$var wire 1 P" \inst1|h2~0_combout\ $end
$var wire 1 Q" \inst1|h3~0_combout\ $end
$var wire 1 R" \inst1|h4~0_combout\ $end
$var wire 1 S" \inst1|h5~0_combout\ $end
$var wire 1 T" \inst1|h6~combout\ $end
$var wire 1 U" \ALT_INV_Shift~inputclkctrl_outclk\ $end
$upscope $end
$upscope $end
$enddefinitions $end
#0
$dumpvars
0!
0"
0#
0$
0%
0&
0'
1(
0)
0*
0+
0,
0-
0.
1/
00
01
02
03
04
05
16
07
08
09
0:
0;
0<
1=
0>
0?
0@
0A
0B
0C
0D
0E
1F
0G
0H
0I
0J
0K
0L
1M
0N
0O
0P
0Q
1R
xS
1T
1U
1V
1W
1X
1Y
0Z
0[
0\
0]
0^
1_
0`
0a
0b
0c
0d
0e
1f
0g
0h
0i
0j
0k
1l
0m
0n
0o
0p
0q
0r
1s
0t
0u
0v
0w
0x
0y
0z
0{
0|
0}
0~
0!!
0"!
0#!
1$!
0%!
0&!
0'!
0(!
0)!
0*!
1+!
0B!
zC!
zD!
zE!
0F!
0G!
0H!
0I!
0J!
0K!
1L!
0M!
0N!
0O!
0P!
0Q!
0R!
1S!
0T!
0U!
0V!
0W!
0X!
0Y!
0Z!
0[!
0\!
0]!
0^!
0_!
0`!
0a!
1b!
0c!
0d!
0e!
0f!
0g!
0h!
1i!
0j!
0k!
0l!
1m!
1n!
1o!
0p!
1q!
0r!
0s!
0t!
0u!
0v!
0w!
0x!
0y!
0z!
0{!
0|!
0}!
0~!
0!"
0""
0#"
0$"
0%"
0&"
0'"
0("
0)"
0*"
0+"
0,"
0-"
0."
0/"
00"
01"
02"
03"
04"
05"
06"
17"
08"
09"
0:"
0;"
0<"
0="
0>"
0?"
0@"
0A"
0B"
0C"
0D"
0E"
1F"
0G"
0H"
0I"
0J"
0K"
0L"
1M"
0N"
0O"
0P"
0Q"
0R"
0S"
1T"
1U"
1:!
1;!
1<!
0=!
16!
17!
18!
19!
1>!
1?!
1@!
0A!
0,!
0-!
0.!
0/!
00!
01!
02!
03!
04!
05!
$end
#160000
1!
1d
1t!
1A!
1u!
#320000
1H
1c
1l!
0n!
1}!
09!
0o!
#480000
0F
0f
0m!
1n!
19!
1o!
1~!
1G"
1J"
1K"
1L"
1a!
1`!
1_!
1\!
1#!
1"!
1!!
1|
1.
1-
1,
1)
#640000
1F
1f
1m!
0n!
09!
0o!
#800000
0H
0c
0l!
1n!
0}!
1""
19!
1o!
0~!
1#"
1$"
0T"
0""
0G"
0J"
0K"
0L"
0a!
0`!
0_!
0\!
0i!
0#!
0"!
0!!
0|
0+!
0.
0-
0,
0)
0(
#1500000
1G
1e
1j!
1=!
0n!
09!
1k!
0U"
0o!
#1560000
0G
0e
0j!
0=!
1n!
19!
0k!
1U"
1o!
0#"
1%"
1'"
0$"
1N"
1Q"
1R"
1g!
1f!
1c!
1)!
1(!
1%!
1&
1%
1"
#1620000
1G
1e
1j!
1=!
0n!
09!
1k!
0U"
0o!
#1680000
0G
0e
0j!
0=!
1n!
19!
0k!
1U"
1o!
0%"
1("
1*"
0'"
0N"
1P"
0Q"
0R"
1S"
1h!
0g!
0f!
1e!
0c!
1*!
0)!
0(!
1'!
0%!
1'
0&
0%
1$
0"
#1740000
1G
1e
1j!
1=!
0n!
09!
1k!
0U"
0o!
#1800000
0G
0e
0j!
0=!
1n!
19!
0k!
1U"
1o!
0("
1+"
0*"
1N"
0P"
1Q"
1R"
1T"
1i!
1g!
1f!
0e!
1c!
1+!
1)!
1(!
0'!
1%!
1(
1&
1%
0$
1"
#1860000
1G
1e
1j!
1=!
0n!
09!
1k!
0U"
0o!
#1920000
0G
0e
0j!
0=!
1n!
19!
0k!
1U"
1o!
1,"
0+"
1[!
07"
0N"
0Q"
0R"
0S"
1{
0L!
1E
0h!
0g!
0f!
0c!
0l
0*!
0)!
0(!
0%!
0=
0'
0&
0%
0"
#1980000
1G
1e
1j!
1=!
0n!
09!
1k!
0U"
0o!
#2040000
0G
0e
0j!
0=!
1n!
19!
0k!
1U"
1o!
0,"
1-"
1Z!
0[!
11"
14"
15"
1z
0{
1J!
1I!
1F!
1D
0E
1j
1i
1Z
1;
1:
17
#2100000
1G
1e
1j!
1=!
0n!
09!
1k!
0U"
0o!
#2160000
0G
0e
0j!
0=!
1n!
19!
0k!
1U"
1o!
0-"
1."
1Y!
0Z!
1/"
01"
13"
04"
05"
16"
1y
0z
1K!
0J!
0I!
1H!
0F!
1C
0D
1k
0j
0i
1h
0Z
1<
0;
0:
19
07
#2220000
1G
1e
1j!
1=!
0n!
09!
1k!
0U"
0o!
#2280000
0G
0e
0j!
0=!
1n!
19!
0k!
1U"
1o!
0."
10"
1X!
0Y!
18"
0/"
11"
03"
14"
15"
17"
1x
0y
1L!
1J!
1I!
0H!
1F!
1B
0C
1l
1j
1i
0h
1Z
1=
1;
1:
09
17
#2340000
1G
1e
1j!
1=!
0n!
09!
1k!
0U"
0o!
#2400000
0G
0e
0j!
0=!
1n!
19!
0k!
1U"
1o!
00"
19"
1W!
0X!
1:"
0F"
01"
04"
05"
06"
08"
1w
0x
0K!
0J!
0I!
0F!
0S!
1A
0B
0k
0j
0i
0Z
0s
0<
0;
0:
07
06
#2460000
1G
1e
1j!
1=!
0n!
09!
1k!
0U"
0o!
#2520000
0G
0e
0j!
0=!
1n!
19!
0k!
1U"
1o!
09"
1;"
1V!
0W!
1<"
0:"
1@"
1C"
1D"
1v
0w
1Q!
1P!
1M!
1@
0A
1q
1p
1m
14
13
10
#2580000
1G
1e
1j!
1=!
0n!
09!
1k!
0U"
0o!
#2640000
0G
0e
0j!
0=!
1n!
19!
0k!
1U"
1o!
0;"
1="
1U!
0V!
1>"
0<"
0@"
1B"
0C"
0D"
1E"
1u
0v
1R!
0Q!
0P!
1O!
0M!
1?
0@
1r
0q
0p
1o
0m
15
04
03
12
00
#2700000
1G
1e
1j!
1=!
0n!
09!
1k!
0U"
0o!
#2760000
0G
0e
0j!
0=!
1n!
19!
0k!
1U"
1o!
0="
1?"
1T!
0U!
0>"
1@"
0B"
1C"
1D"
1F"
1t
0u
1S!
1Q!
1P!
0O!
1M!
1>
0?
1s
1q
1p
0o
1m
16
14
13
02
10
#2820000
1G
1e
1j!
1=!
0n!
09!
1k!
0U"
0o!
#2880000
0G
0e
0j!
0=!
1n!
19!
0k!
1U"
1o!
0?"
0T!
0@"
0C"
0D"
0E"
0t
0R!
0Q!
0P!
0M!
0>
0r
0q
0p
0m
05
04
03
00
#2940000
1G
1e
1j!
1=!
0n!
09!
1k!
0U"
0o!
#3000000
0G
0e
0j!
0=!
1n!
19!
0k!
1U"
1o!
#3060000
1G
1e
1j!
1=!
0n!
09!
1k!
0U"
0o!
#3120000
0G
0e
0j!
0=!
1n!
19!
0k!
1U"
1o!
#3180000
1G
1e
1j!
1=!
0n!
09!
1k!
0U"
0o!
#3240000
0G
0e
0j!
0=!
1n!
19!
0k!
1U"
1o!
#3300000
1G
1e
1j!
1=!
0n!
09!
1k!
0U"
0o!
#3360000
0G
0e
0j!
0=!
1n!
19!
0k!
1U"
1o!
#3420000
1G
1e
1j!
1=!
0n!
09!
1k!
0U"
0o!
#3480000
0G
0e
0j!
0=!
1n!
19!
0k!
1U"
1o!
#3540000
1G
1e
1j!
1=!
0n!
09!
1k!
0U"
0o!
#3600000
0G
0e
0j!
0=!
1n!
19!
0k!
1U"
1o!
#3660000
1G
1e
1j!
1=!
0n!
09!
1k!
0U"
0o!
#3720000
0G
0e
0j!
0=!
1n!
19!
0k!
1U"
1o!
#3780000
1G
1e
1j!
1=!
0n!
09!
1k!
0U"
0o!
#3840000
0G
0e
0j!
0=!
1n!
19!
0k!
1U"
1o!
#3900000
1G
1e
1j!
1=!
0n!
09!
1k!
0U"
0o!
#3960000
0G
0e
0j!
0=!
1n!
19!
0k!
1U"
1o!
#4020000
1G
1e
1j!
1=!
0n!
09!
1k!
0U"
0o!
#4080000
0G
0e
0j!
0=!
1n!
19!
0k!
1U"
1o!
#4140000
1G
1e
1j!
1=!
0n!
09!
1k!
0U"
0o!
#4200000
0G
0e
0j!
0=!
1n!
19!
0k!
1U"
1o!
#4260000
1G
1e
1j!
1=!
0n!
09!
1k!
0U"
0o!
#4320000
0G
0e
0j!
0=!
1n!
19!
0k!
1U"
1o!
#4380000
1G
1e
1j!
1=!
0n!
09!
1k!
0U"
0o!
#4440000
0G
0e
0j!
0=!
1n!
19!
0k!
1U"
1o!
#4500000
1G
1e
1j!
1=!
0n!
09!
1k!
0U"
0o!
#4560000
0G
0e
0j!
0=!
1n!
19!
0k!
1U"
1o!
#4620000
1G
1e
1j!
1=!
0n!
09!
1k!
0U"
0o!
#4680000
0G
0e
0j!
0=!
1n!
19!
0k!
1U"
1o!
#4740000
1G
1e
1j!
1=!
0n!
09!
1k!
0U"
0o!
#4800000
0G
0e
0j!
0=!
1n!
19!
0k!
1U"
1o!
#4860000
1G
1e
1j!
1=!
0n!
09!
1k!
0U"
0o!
#4920000
0G
0e
0j!
0=!
1n!
19!
0k!
1U"
1o!
#4980000
1G
1e
1j!
1=!
0n!
09!
1k!
0U"
0o!
#5040000
0G
0e
0j!
0=!
1n!
19!
0k!
1U"
1o!
#5100000
1G
1e
1j!
1=!
0n!
09!
1k!
0U"
0o!
#5160000
0G
0e
0j!
0=!
1n!
19!
0k!
1U"
1o!
#5220000
1G
1e
1j!
1=!
0n!
09!
1k!
0U"
0o!
#5280000
0G
0e
0j!
0=!
1n!
19!
0k!
1U"
1o!
#5340000
1G
1e
1j!
1=!
0n!
09!
1k!
0U"
0o!
#5400000
0G
0e
0j!
0=!
1n!
19!
0k!
1U"
1o!
#5460000
1G
1e
1j!
1=!
0n!
09!
1k!
0U"
0o!
#5520000
0G
0e
0j!
0=!
1n!
19!
0k!
1U"
1o!
#5580000
1G
1e
1j!
1=!
0n!
09!
1k!
0U"
0o!
#5640000
0G
0e
0j!
0=!
1n!
19!
0k!
1U"
1o!
#5700000
1G
1e
1j!
1=!
0n!
09!
1k!
0U"
0o!
#5760000
0G
0e
0j!
0=!
1n!
19!
0k!
1U"
1o!
#5820000
1G
1e
1j!
1=!
0n!
09!
1k!
0U"
0o!
#5880000
0G
0e
0j!
0=!
1n!
19!
0k!
1U"
1o!
#5940000
1G
1e
1j!
1=!
0n!
09!
1k!
0U"
0o!
#6000000
0G
0e
0j!
0=!
1n!
19!
0k!
1U"
1o!
#6060000
1G
1e
1j!
1=!
0n!
09!
1k!
0U"
0o!
#6120000
0G
0e
0j!
0=!
1n!
19!
0k!
1U"
1o!
#6180000
1G
1e
1j!
1=!
0n!
09!
1k!
0U"
0o!
#6240000
0G
0e
0j!
0=!
1n!
19!
0k!
1U"
1o!
#6300000
1G
1e
1j!
1=!
0n!
09!
1k!
0U"
0o!
#6360000
0G
0e
0j!
0=!
1n!
19!
0k!
1U"
1o!
#6420000
1G
1e
1j!
1=!
0n!
09!
1k!
0U"
0o!
#6480000
0G
0e
0j!
0=!
1n!
19!
0k!
1U"
1o!
#6540000
1G
1e
1j!
1=!
0n!
09!
1k!
0U"
0o!
#6600000
0G
0e
0j!
0=!
1n!
19!
0k!
1U"
1o!
#6660000
1G
1e
1j!
1=!
0n!
09!
1k!
0U"
0o!
#6720000
0G
0e
0j!
0=!
1n!
19!
0k!
1U"
1o!
#6780000
1G
1e
1j!
1=!
0n!
09!
1k!
0U"
0o!
#6840000
0G
0e
0j!
0=!
1n!
19!
0k!
1U"
1o!
#6900000
1G
1e
1j!
1=!
0n!
09!
1k!
0U"
0o!
#6960000
0G
0e
0j!
0=!
1n!
19!
0k!
1U"
1o!
#7020000
1G
1e
1j!
1=!
0n!
09!
1k!
0U"
0o!
#7080000
0G
0e
0j!
0=!
1n!
19!
0k!
1U"
1o!
#7140000
1G
1e
1j!
1=!
0n!
09!
1k!
0U"
0o!
#7200000
0G
0e
0j!
0=!
1n!
19!
0k!
1U"
1o!
#7260000
1G
1e
1j!
1=!
0n!
09!
1k!
0U"
0o!
#7320000
0G
0e
0j!
0=!
1n!
19!
0k!
1U"
1o!
#7380000
1G
1e
1j!
1=!
0n!
09!
1k!
0U"
0o!
#7440000
0G
0e
0j!
0=!
1n!
19!
0k!
1U"
1o!
#7500000
1G
1e
1j!
1=!
0n!
09!
1k!
0U"
0o!
#7560000
0G
0e
0j!
0=!
1n!
19!
0k!
1U"
1o!
#7620000
1G
1e
1j!
1=!
0n!
09!
1k!
0U"
0o!
#7680000
0G
0e
0j!
0=!
1n!
19!
0k!
1U"
1o!
#7740000
1G
1e
1j!
1=!
0n!
09!
1k!
0U"
0o!
#7800000
0G
0e
0j!
0=!
1n!
19!
0k!
1U"
1o!
#7860000
1G
1e
1j!
1=!
0n!
09!
1k!
0U"
0o!
#7920000
0G
0e
0j!
0=!
1n!
19!
0k!
1U"
1o!
#7980000
1G
1e
1j!
1=!
0n!
09!
1k!
0U"
0o!
#8040000
0G
0e
0j!
0=!
1n!
19!
0k!
1U"
1o!
#8100000
1G
1e
1j!
1=!
0n!
09!
1k!
0U"
0o!
#8160000
0G
0e
0j!
0=!
1n!
19!
0k!
1U"
1o!
#8220000
1G
1e
1j!
1=!
0n!
09!
1k!
0U"
0o!
#8280000
0G
0e
0j!
0=!
1n!
19!
0k!
1U"
1o!
#8340000
1G
1e
1j!
1=!
0n!
09!
1k!
0U"
0o!
#8400000
0G
0e
0j!
0=!
1n!
19!
0k!
1U"
1o!
#8460000
1G
1e
1j!
1=!
0n!
09!
1k!
0U"
0o!
#8520000
0G
0e
0j!
0=!
1n!
19!
0k!
1U"
1o!
#8580000
1G
1e
1j!
1=!
0n!
09!
1k!
0U"
0o!
#8640000
0G
0e
0j!
0=!
1n!
19!
0k!
1U"
1o!
#8700000
1G
1e
1j!
1=!
0n!
09!
1k!
0U"
0o!
#8760000
0G
0e
0j!
0=!
1n!
19!
0k!
1U"
1o!
#8820000
1G
1e
1j!
1=!
0n!
09!
1k!
0U"
0o!
#8880000
0G
0e
0j!
0=!
1n!
19!
0k!
1U"
1o!
#8940000
1G
1e
1j!
1=!
0n!
09!
1k!
0U"
0o!
#9000000
0G
0e
0j!
0=!
1n!
19!
0k!
1U"
1o!
#9060000
1G
1e
1j!
1=!
0n!
09!
1k!
0U"
0o!
#9120000
0G
0e
0j!
0=!
1n!
19!
0k!
1U"
1o!
#9180000
1G
1e
1j!
1=!
0n!
09!
1k!
0U"
0o!
#9240000
0G
0e
0j!
0=!
1n!
19!
0k!
1U"
1o!
#9300000
1G
1e
1j!
1=!
0n!
09!
1k!
0U"
0o!
#9360000
0G
0e
0j!
0=!
1n!
19!
0k!
1U"
1o!
#9420000
1G
1e
1j!
1=!
0n!
09!
1k!
0U"
0o!
#9480000
0G
0e
0j!
0=!
1n!
19!
0k!
1U"
1o!
#9540000
1G
1e
1j!
1=!
0n!
09!
1k!
0U"
0o!
#9600000
0G
0e
0j!
0=!
1n!
19!
0k!
1U"
1o!
#9660000
1G
1e
1j!
1=!
0n!
09!
1k!
0U"
0o!
#9720000
0G
0e
0j!
0=!
1n!
19!
0k!
1U"
1o!
#9780000
1G
1e
1j!
1=!
0n!
09!
1k!
0U"
0o!
#9840000
0G
0e
0j!
0=!
1n!
19!
0k!
1U"
1o!
#9900000
1G
1e
1j!
1=!
0n!
09!
1k!
0U"
0o!
#9960000
0G
0e
0j!
0=!
1n!
19!
0k!
1U"
1o!
#10020000
1G
1e
1j!
1=!
0n!
09!
1k!
0U"
0o!
#10080000
0G
0e
0j!
0=!
1n!
19!
0k!
1U"
1o!
#10140000
1G
1e
1j!
1=!
0n!
09!
1k!
0U"
0o!
#10200000
0G
0e
0j!
0=!
1n!
19!
0k!
1U"
1o!
#10260000
1G
1e
1j!
1=!
0n!
09!
1k!
0U"
0o!
#10320000
0G
0e
0j!
0=!
1n!
19!
0k!
1U"
1o!
#10380000
1G
1e
1j!
1=!
0n!
09!
1k!
0U"
0o!
#10440000
0G
0e
0j!
0=!
1n!
19!
0k!
1U"
1o!
#10500000
1G
1e
1j!
1=!
0n!
09!
1k!
0U"
0o!
#10560000
0G
0e
0j!
0=!
1n!
19!
0k!
1U"
1o!
#10620000
1G
1e
1j!
1=!
0n!
09!
1k!
0U"
0o!
#10680000
0G
0e
0j!
0=!
1n!
19!
0k!
1U"
1o!
#10740000
1G
1e
1j!
1=!
0n!
09!
1k!
0U"
0o!
#10800000
0G
0e
0j!
0=!
1n!
19!
0k!
1U"
1o!
#10860000
1G
1e
1j!
1=!
0n!
09!
1k!
0U"
0o!
#10920000
0G
0e
0j!
0=!
1n!
19!
0k!
1U"
1o!
#10980000
1G
1e
1j!
1=!
0n!
09!
1k!
0U"
0o!
#11040000
0G
0e
0j!
0=!
1n!
19!
0k!
1U"
1o!
#11100000
1G
1e
1j!
1=!
0n!
09!
1k!
0U"
0o!
#11160000
0G
0e
0j!
0=!
1n!
19!
0k!
1U"
1o!
#11220000
1G
1e
1j!
1=!
0n!
09!
1k!
0U"
0o!
#11280000
0G
0e
0j!
0=!
1n!
19!
0k!
1U"
1o!
#11340000
1G
1e
1j!
1=!
0n!
09!
1k!
0U"
0o!
#11400000
0G
0e
0j!
0=!
1n!
19!
0k!
1U"
1o!
#11460000
1G
1e
1j!
1=!
0n!
09!
1k!
0U"
0o!
#11520000
0G
0e
0j!
0=!
1n!
19!
0k!
1U"
1o!
#11580000
1G
1e
1j!
1=!
0n!
09!
1k!
0U"
0o!
#11640000
0G
0e
0j!
0=!
1n!
19!
0k!
1U"
1o!
#11700000
1G
1e
1j!
1=!
0n!
09!
1k!
0U"
0o!
#11760000
0G
0e
0j!
0=!
1n!
19!
0k!
1U"
1o!
#11820000
1G
1e
1j!
1=!
0n!
09!
1k!
0U"
0o!
#11880000
0G
0e
0j!
0=!
1n!
19!
0k!
1U"
1o!
#11940000
1G
1e
1j!
1=!
0n!
09!
1k!
0U"
0o!
#12000000
0G
0e
0j!
0=!
1n!
19!
0k!
1U"
1o!
#12060000
1G
1e
1j!
1=!
0n!
09!
1k!
0U"
0o!
#12120000
0G
0e
0j!
0=!
1n!
19!
0k!
1U"
1o!
#12180000
1G
1e
1j!
1=!
0n!
09!
1k!
0U"
0o!
#12240000
0G
0e
0j!
0=!
1n!
19!
0k!
1U"
1o!
#12300000
1G
1e
1j!
1=!
0n!
09!
1k!
0U"
0o!
#12360000
0G
0e
0j!
0=!
1n!
19!
0k!
1U"
1o!
#12420000
1G
1e
1j!
1=!
0n!
09!
1k!
0U"
0o!
#12480000
0G
0e
0j!
0=!
1n!
19!
0k!
1U"
1o!
