ConversorHexa/simulation/qsim/ConversorHexadecimal.msim.vcd
$comment
	File created using the following command:
		vcd file ConversorHexadecimal.msim.vcd -direction
$end
$date
	Thu Sep  1 16:01:36 2022
$end
$version
	ModelSim Version 10.5b
$end
$timescale
	1ps
$end

$scope module conversorhexadecimal_vhd_vec_tst $end
$var wire 1 ! A $end
$var wire 1 " B $end
$var wire 1 # C $end
$var wire 1 $ D $end
$var wire 1 % h0 $end
$var wire 1 & h1 $end
$var wire 1 ' h2 $end
$var wire 1 ( h3 $end
$var wire 1 ) h4 $end
$var wire 1 * h5 $end
$var wire 1 + h6 $end

$scope module i1 $end
$var wire 1 , gnd $end
$var wire 1 - vcc $end
$var wire 1 . unknown $end
$var wire 1 / devoe $end
$var wire 1 0 devclrn $end
$var wire 1 1 devpor $end
$var wire 1 2 ww_devoe $end
$var wire 1 3 ww_devclrn $end
$var wire 1 4 ww_devpor $end
$var wire 1 5 ww_A $end
$var wire 1 6 ww_B $end
$var wire 1 7 ww_C $end
$var wire 1 8 ww_D $end
$var wire 1 9 ww_h0 $end
$var wire 1 : ww_h1 $end
$var wire 1 ; ww_h2 $end
$var wire 1 < ww_h3 $end
$var wire 1 = ww_h4 $end
$var wire 1 > ww_h5 $end
$var wire 1 ? ww_h6 $end
$var wire 1 @ \~QUARTUS_CREATED_ADC1~_CHSEL_bus\ [4] $end
$var wire 1 A \~QUARTUS_CREATED_ADC1~_CHSEL_bus\ [3] $end
$var wire 1 B \~QUARTUS_CREATED_ADC1~_CHSEL_bus\ [2] $end
$var wire 1 C \~QUARTUS_CREATED_ADC1~_CHSEL_bus\ [1] $end
$var wire 1 D \~QUARTUS_CREATED_ADC1~_CHSEL_bus\ [0] $end
$var wire 1 E \~QUARTUS_CREATED_ADC2~_CHSEL_bus\ [4] $end
$var wire 1 F \~QUARTUS_CREATED_ADC2~_CHSEL_bus\ [3] $end
$var wire 1 G \~QUARTUS_CREATED_ADC2~_CHSEL_bus\ [2] $end
$var wire 1 H \~QUARTUS_CREATED_ADC2~_CHSEL_bus\ [1] $end
$var wire 1 I \~QUARTUS_CREATED_ADC2~_CHSEL_bus\ [0] $end
$var wire 1 J \~QUARTUS_CREATED_GND~I_combout\ $end
$var wire 1 K \~QUARTUS_CREATED_UNVM~~busy\ $end
$var wire 1 L \~QUARTUS_CREATED_ADC1~~eoc\ $end
$var wire 1 M \~QUARTUS_CREATED_ADC2~~eoc\ $end
$var wire 1 N \h0~output_o\ $end
$var wire 1 O \h1~output_o\ $end
$var wire 1 P \h2~output_o\ $end
$var wire 1 Q \h3~output_o\ $end
$var wire 1 R \h4~output_o\ $end
$var wire 1 S \h5~output_o\ $end
$var wire 1 T \h6~output_o\ $end
$var wire 1 U \A~input_o\ $end
$var wire 1 V \D~input_o\ $end
$var wire 1 W \B~input_o\ $end
$var wire 1 X \C~input_o\ $end
$var wire 1 Y \h0~0_combout\ $end
$var wire 1 Z \h1~0_combout\ $end
$var wire 1 [ \h2~0_combout\ $end
$var wire 1 \ \h3~0_combout\ $end
$var wire 1 ] \h4~0_combout\ $end
$var wire 1 ^ \h5~0_combout\ $end
$var wire 1 _ \h6~0_combout\ $end
$upscope $end
$upscope $end
$enddefinitions $end
#0
$dumpvars
0!
0"
0#
0$
0%
0&
0'
0(
0)
0*
1+
0,
1-
x.
1/
10
11
12
13
14
05
06
07
08
09
0:
0;
0<
0=
0>
1?
0J
zK
zL
zM
0N
0O
0P
0Q
0R
0S
1T
0U
0V
0W
0X
0Y
0Z
0[
0\
0]
0^
1_
0@
0A
0B
0C
0D
0E
0F
0G
0H
0I
$end
#100000
1$
18
1V
1Y
1\
1]
1^
1S
1R
1Q
1N
1>
1=
1<
19
1*
1)
1(
1%
#200000
0$
1#
08
17
1X
0V
0Y
1[
0\
0]
0_
0T
0R
0Q
1P
0N
0?
0=
0<
1;
09
0+
0)
0(
1'
0%
#300000
1$
18
1V
0[
1]
1R
0P
1=
0;
1)
0'
#400000
0$
0#
1"
08
07
16
1W
0X
0V
1Y
1\
0^
0S
1Q
1N
0>
1<
19
0*
1(
1%
#500000
1$
18
1V
0Y
1Z
0\
0Q
1O
0N
0<
1:
09
0(
1&
0%
#600000
0$
1#
08
17
1X
0V
0]
0R
0=
0)
#700000
1$
18
1V
0Z
1\
1]
1^
1_
1T
1S
1R
1Q
0O
1?
1>
1=
1<
0:
1+
1*
1)
1(
0&
#800000
0$
0#
0"
1!
08
07
06
15
1U
0W
0X
0V
0\
0]
0^
0_
0T
0S
0R
0Q
0?
0>
0=
0<
0+
0*
0)
0(
#900000
1$
18
1V
1]
1R
1=
1)
#1000000
0$
1#
08
17
1X
0V
1\
0]
0R
1Q
0=
1<
0)
1(
#1100000
1$
18
1V
1Y
1Z
0\
0Q
1O
1N
0<
1:
19
0(
1&
1%
#1200000
0$
0#
1"
08
07
16
1W
0X
0V
0Y
1[
1_
1T
1P
0N
1?
1;
09
1+
1'
0%
#1300000
1$
18
1V
1Y
0Z
0[
1^
0_
0T
1S
0P
0O
1N
0?
1>
0;
0:
19
0+
1*
0'
0&
1%
#1400000
0$
1#
08
17
1X
0V
0Y
1Z
1[
0^
0S
1P
1O
0N
0>
1;
1:
09
0*
1'
1&
0%
#1500000
1$
18
1V
1\
1Q
1<
1(
#1600000
0$
0#
0"
0!
08
07
06
05
0U
0W
0X
0V
0Z
0[
0\
1_
1T
0Q
0P
0O
1?
0<
0;
0:
1+
0(
0'
0&
#1700000
1$
18
1V
1Y
1\
1]
1^
1S
1R
1Q
1N
1>
1=
1<
19
1*
1)
1(
1%
#1800000
0$
1#
08
17
1X
0V
0Y
1[
0\
0]
0_
0T
0R
0Q
1P
0N
0?
0=
0<
1;
09
0+
0)
0(
1'
0%
#1900000
1$
18
1V
0[
1]
1R
0P
1=
0;
1)
0'
#2000000
0$
0#
1"
08
07
16
1W
0X
0V
1Y
1\
0^
0S
1Q
1N
0>
1<
19
0*
1(
1%
#2100000
1$
18
1V
0Y
1Z
0\
0Q
1O
0N
0<
1:
09
0(
1&
0%
#2200000
0$
1#
08
17
1X
0V
0]
0R
0=
0)
#2300000
1$
18
1V
0Z
1\
1]
1^
1_
1T
1S
1R
1Q
0O
1?
1>
1=
1<
0:
1+
1*
1)
1(
0&
#2400000
0$
0#
0"
1!
08
07
06
15
1U
0W
0X
0V
0\
0]
0^
0_
0T
0S
0R
0Q
0?
0>
0=
0<
0+
0*
0)
0(
#2500000
1$
18
1V
1]
1R
1=
1)
#2600000
0$
1#
08
17
1X
0V
1\
0]
0R
1Q
0=
1<
0)
1(
#2700000
1$
18
1V
1Y
1Z
0\
0Q
1O
1N
0<
1:
19
0(
1&
1%
#2800000
0$
0#
1"
08
07
16
1W
0X
0V
0Y
1[
1_
1T
1P
0N
1?
1;
09
1+
1'
0%
#2900000
1$
18
1V
1Y
0Z
0[
1^
0_
0T
1S
0P
0O
1N
0?
1>
0;
0:
19
0+
1*
0'
0&
1%
#3000000
0$
1#
08
17
1X
0V
0Y
1Z
1[
0^
0S
1P
1O
0N
0>
1;
1:
09
0*
1'
1&
0%
#3100000
1$
18
1V
1\
1Q
1<
1(
#3200000
0$
0#
0"
0!
08
07
06
05
0U
0W
0X
0V
0Z
0[
0\
1_
1T
0Q
0P
0O
1?
0<
0;
0:
1+
0(
0'
0&
#3300000
1$
18
1V
1Y
1\
1]
1^
1S
1R
1Q
1N
1>
1=
1<
19
1*
1)
1(
1%
#3400000
0$
1#
08
17
1X
0V
0Y
1[
0\
0]
0_
0T
0R
0Q
1P
0N
0?
0=
0<
1;
09
0+
0)
0(
1'
0%
#3500000
1$
18
1V
0[
1]
1R
0P
1=
0;
1)
0'
#3600000
0$
0#
1"
08
07
16
1W
0X
0V
1Y
1\
0^
0S
1Q
1N
0>
1<
19
0*
1(
1%
#3700000
1$
18
1V
0Y
1Z
0\
0Q
1O
0N
0<
1:
09
0(
1&
0%
#3800000
0$
1#
08
17
1X
0V
0]
0R
0=
0)
#3900000
1$
18
1V
0Z
1\
1]
1^
1_
1T
1S
1R
1Q
0O
1?
1>
1=
1<
0:
1+
1*
1)
1(
0&
#4000000
0$
0#
0"
1!
08
07
06
15
1U
0W
0X
0V
0\
0]
0^
0_
0T
0S
0R
0Q
0?
0>
0=
0<
0+
0*
0)
0(
#4100000
1$
18
1V
1]
1R
1=
1)
#4200000
0$
1#
08
17
1X
0V
1\
0]
0R
1Q
0=
1<
0)
1(
#4300000
1$
18
1V
1Y
1Z
0\
0Q
1O
1N
0<
1:
19
0(
1&
1%
#4400000
0$
0#
1"
08
07
16
1W
0X
0V
0Y
1[
1_
1T
1P
0N
1?
1;
09
1+
1'
0%
#4500000
1$
18
1V
1Y
0Z
0[
1^
0_
0T
1S
0P
0O
1N
0?
1>
0;
0:
19
0+
1*
0'
0&
1%
#4600000
0$
1#
08
17
1X
0V
0Y
1Z
1[
0^
0S
1P
1O
0N
0>
1;
1:
09
0*
1'
1&
0%
#4700000
1$
18
1V
1\
1Q
1<
1(
#4800000
0$
0#
0"
0!
08
07
06
05
0U
0W
0X
0V
0Z
0[
0\
1_
1T
0Q
0P
0O
1?
0<
0;
0:
1+
0(
0'
0&
#4900000
1$
18
1V
1Y
1\
1]
1^
1S
1R
1Q
1N
1>
1=
1<
19
1*
1)
1(
1%
#5000000
0$
1#
08
17
1X
0V
0Y
1[
0\
0]
0_
0T
0R
0Q
1P
0N
0?
0=
0<
1;
09
0+
0)
0(
1'
0%
#5100000
1$
18
1V
0[
1]
1R
0P
1=
0;
1)
0'
#5200000
0$
0#
1"
08
07
16
1W
0X
0V
1Y
1\
0^
0S
1Q
1N
0>
1<
19
0*
1(
1%
#5300000
1$
18
1V
0Y
1Z
0\
0Q
1O
0N
0<
1:
09
0(
1&
0%
#5400000
0$
1#
08
17
1X
0V
0]
0R
0=
0)
#5500000
1$
18
1V
0Z
1\
1]
1^
1_
1T
1S
1R
1Q
0O
1?
1>
1=
1<
0:
1+
1*
1)
1(
0&
#5600000
0$
0#
0"
1!
08
07
06
15
1U
0W
0X
0V
0\
0]
0^
0_
0T
0S
0R
0Q
0?
0>
0=
0<
0+
0*
0)
0(
#5700000
1$
18
1V
1]
1R
1=
1)
#5800000
0$
1#
08
17
1X
0V
1\
0]
0R
1Q
0=
1<
0)
1(
#5900000
1$
18
1V
1Y
1Z
0\
0Q
1O
1N
0<
1:
19
0(
1&
1%
#6000000
0$
0#
1"
08
07
16
1W
0X
0V
0Y
1[
1_
1T
1P
0N
1?
1;
09
1+
1'
0%
#6100000
1$
18
1V
1Y
0Z
0[
1^
0_
0T
1S
0P
0O
1N
0?
1>
0;
0:
19
0+
1*
0'
0&
1%
#6200000
0$
1#
08
17
1X
0V
0Y
1Z
1[
0^
0S
1P
1O
0N
0>
1;
1:
09
0*
1'
1&
0%
#6300000
1$
18
1V
1\
1Q
1<
1(
#6400000
0$
0#
0"
0!
08
07
06
05
0U
0W
0X
0V
0Z
0[
0\
1_
1T
0Q
0P
0O
1?
0<
0;
0:
1+
0(
0'
0&
#6500000
1$
18
1V
1Y
1\
1]
1^
1S
1R
1Q
1N
1>
1=
1<
19
1*
1)
1(
1%
#6600000
0$
1#
08
17
1X
0V
0Y
1[
0\
0]
0_
0T
0R
0Q
1P
0N
0?
0=
0<
1;
09
0+
0)
0(
1'
0%
#6700000
1$
18
1V
0[
1]
1R
0P
1=
0;
1)
0'
#6800000
0$
0#
1"
08
07
16
1W
0X
0V
1Y
1\
0^
0S
1Q
1N
0>
1<
19
0*
1(
1%
#6900000
1$
18
1V
0Y
1Z
0\
0Q
1O
0N
0<
1:
09
0(
1&
0%
#7000000
0$
1#
08
17
1X
0V
0]
0R
0=
0)
#7100000
1$
18
1V
0Z
1\
1]
1^
1_
1T
1S
1R
1Q
0O
1?
1>
1=
1<
0:
1+
1*
1)
1(
0&
#7200000
0$
0#
0"
1!
08
07
06
15
1U
0W
0X
0V
0\
0]
0^
0_
0T
0S
0R
0Q
0?
0>
0=
0<
0+
0*
0)
0(
#7300000
1$
18
1V
1]
1R
1=
1)
#7400000
0$
1#
08
17
1X
0V
1\
0]
0R
1Q
0=
1<
0)
1(
#7500000
1$
18
1V
1Y
1Z
0\
0Q
1O
1N
0<
1:
19
0(
1&
1%
#7600000
0$
0#
1"
08
07
16
1W
0X
0V
0Y
1[
1_
1T
1P
0N
1?
1;
09
1+
1'
0%
#7700000
1$
18
1V
1Y
0Z
0[
1^
0_
0T
1S
0P
0O
1N
0?
1>
0;
0:
19
0+
1*
0'
0&
1%
#7800000
0$
1#
08
17
1X
0V
0Y
1Z
1[
0^
0S
1P
1O
0N
0>
1;
1:
09
0*
1'
1&
0%
#7900000
1$
18
1V
1\
1Q
1<
1(
#8000000
0$
0#
0"
0!
08
07
06
05
0U
0W
0X
0V
0Z
0[
0\
1_
1T
0Q
0P
0O
1?
0<
0;
0:
1+
0(
0'
0&
#8100000
1$
18
1V
1Y
1\
1]
1^
1S
1R
1Q
1N
1>
1=
1<
19
1*
1)
1(
1%
#8200000
0$
1#
08
17
1X
0V
0Y
1[
0\
0]
0_
0T
0R
0Q
1P
0N
0?
0=
0<
1;
09
0+
0)
0(
1'
0%
#8300000
1$
18
1V
0[
1]
1R
0P
1=
0;
1)
0'
#8400000
0$
0#
1"
08
07
16
1W
0X
0V
1Y
1\
0^
0S
1Q
1N
0>
1<
19
0*
1(
1%
#8500000
1$
18
1V
0Y
1Z
0\
0Q
1O
0N
0<
1:
09
0(
1&
0%
#8600000
0$
1#
08
17
1X
0V
0]
0R
0=
0)
#8700000
1$
18
1V
0Z
1\
1]
1^
1_
1T
1S
1R
1Q
0O
1?
1>
1=
1<
0:
1+
1*
1)
1(
0&
#8800000
0$
0#
0"
1!
08
07
06
15
1U
0W
0X
0V
0\
0]
0^
0_
0T
0S
0R
0Q
0?
0>
0=
0<
0+
0*
0)
0(
#8900000
1$
18
1V
1]
1R
1=
1)
#9000000
0$
1#
08
17
1X
0V
1\
0]
0R
1Q
0=
1<
0)
1(
#9100000
1$
18
1V
1Y
1Z
0\
0Q
1O
1N
0<
1:
19
0(
1&
1%
#9200000
0$
0#
1"
08
07
16
1W
0X
0V
0Y
1[
1_
1T
1P
0N
1?
1;
09
1+
1'
0%
#9300000
1$
18
1V
1Y
0Z
0[
1^
0_
0T
1S
0P
0O
1N
0?
1>
0;
0:
19
0+
1*
0'
0&
1%
#9400000
0$
1#
08
17
1X
0V
0Y
1Z
1[
0^
0S
1P
1O
0N
0>
1;
1:
09
0*
1'
1&
0%
#9500000
1$
18
1V
1\
1Q
1<
1(
#9600000
0$
0#
0"
0!
08
07
06
05
0U
0W
0X
0V
0Z
0[
0\
1_
1T
0Q
0P
0O
1?
0<
0;
0:
1+
0(
0'
0&
#9700000
1$
18
1V
1Y
1\
1]
1^
1S
1R
1Q
1N
1>
1=
1<
19
1*
1)
1(
1%
#9800000
0$
1#
08
17
1X
0V
0Y
1[
0\
0]
0_
0T
0R
0Q
1P
0N
0?
0=
0<
1;
09
0+
0)
0(
1'
0%
#9900000
1$
18
1V
0[
1]
1R
0P
1=
0;
1)
0'
