Prova1/simulation/qsim/Prova1.msim.vcd
$comment
	File created using the following command:
		vcd file Prova1.msim.vcd -direction
$end
$date
	Thu Oct  6 13:26:43 2022
$end
$version
	ModelSim Version 10.5b
$end
$timescale
	1ps
$end

$scope module prova1_vhd_vec_tst $end
$var wire 1 ! Clock $end
$var wire 1 " Q0 $end
$var wire 1 # Q1 $end
$var wire 1 $ Q2 $end
$var wire 1 % Q3 $end
$var wire 1 & Seletora $end

$scope module i1 $end
$var wire 1 ' gnd $end
$var wire 1 ( vcc $end
$var wire 1 ) unknown $end
$var wire 1 * devoe $end
$var wire 1 + devclrn $end
$var wire 1 , devpor $end
$var wire 1 - ww_devoe $end
$var wire 1 . ww_devclrn $end
$var wire 1 / ww_devpor $end
$var wire 1 0 ww_Q0 $end
$var wire 1 1 ww_Clock $end
$var wire 1 2 ww_Q1 $end
$var wire 1 3 ww_Seletora $end
$var wire 1 4 ww_Q2 $end
$var wire 1 5 ww_Q3 $end
$var wire 1 6 \~QUARTUS_CREATED_ADC1~_CHSEL_bus\ [4] $end
$var wire 1 7 \~QUARTUS_CREATED_ADC1~_CHSEL_bus\ [3] $end
$var wire 1 8 \~QUARTUS_CREATED_ADC1~_CHSEL_bus\ [2] $end
$var wire 1 9 \~QUARTUS_CREATED_ADC1~_CHSEL_bus\ [1] $end
$var wire 1 : \~QUARTUS_CREATED_ADC1~_CHSEL_bus\ [0] $end
$var wire 1 ; \~QUARTUS_CREATED_ADC2~_CHSEL_bus\ [4] $end
$var wire 1 < \~QUARTUS_CREATED_ADC2~_CHSEL_bus\ [3] $end
$var wire 1 = \~QUARTUS_CREATED_ADC2~_CHSEL_bus\ [2] $end
$var wire 1 > \~QUARTUS_CREATED_ADC2~_CHSEL_bus\ [1] $end
$var wire 1 ? \~QUARTUS_CREATED_ADC2~_CHSEL_bus\ [0] $end
$var wire 1 @ \~QUARTUS_CREATED_GND~I_combout\ $end
$var wire 1 A \~QUARTUS_CREATED_UNVM~~busy\ $end
$var wire 1 B \~QUARTUS_CREATED_ADC1~~eoc\ $end
$var wire 1 C \~QUARTUS_CREATED_ADC2~~eoc\ $end
$var wire 1 D \Q0~output_o\ $end
$var wire 1 E \Q1~output_o\ $end
$var wire 1 F \Q2~output_o\ $end
$var wire 1 G \Q3~output_o\ $end
$var wire 1 H \Clock~input_o\ $end
$var wire 1 I \inst~0_combout\ $end
$var wire 1 J \inst~q\ $end
$var wire 1 K \Seletora~input_o\ $end
$var wire 1 L \inst4|inst2~combout\ $end
$var wire 1 M \inst1~0_combout\ $end
$var wire 1 N \inst1~q\ $end
$var wire 1 O \inst5|inst2~combout\ $end
$var wire 1 P \inst2~0_combout\ $end
$var wire 1 Q \inst2~q\ $end
$var wire 1 R \inst6|inst2~combout\ $end
$var wire 1 S \inst3~0_combout\ $end
$var wire 1 T \inst3~q\ $end
$upscope $end
$upscope $end
$enddefinitions $end
#0
$dumpvars
0!
0"
0#
0$
0%
0&
0'
1(
x)
1*
1+
1,
1-
1.
1/
00
01
02
03
04
05
0@
zA
zB
zC
0D
0E
0F
0G
0H
1I
0J
0K
0L
1M
0N
0O
1P
0Q
0R
1S
0T
06
07
08
09
0:
0;
0<
0=
0>
0?
$end
#12000
1!
11
1H
1J
1D
0I
1L
10
1N
1"
1E
0M
1O
12
1Q
1#
1F
0P
1R
14
1T
1$
1G
0S
15
1%
#24000
0!
01
0H
#36000
1!
11
1H
0J
0D
1I
0L
00
0"
#48000
0!
01
0H
#60000
1!
11
1H
1J
1D
0I
1L
10
0N
1"
0E
1M
0O
02
0#
#72000
0!
01
0H
#84000
1!
11
1H
0J
0D
1I
0L
00
0"
#96000
0!
01
0H
#108000
1!
11
1H
1J
1D
0I
1L
10
1N
1"
1E
0M
1O
12
0Q
1#
0F
1P
0R
04
0$
#120000
0!
01
0H
#132000
1!
11
1H
0J
0D
1I
0L
00
0"
#144000
0!
01
0H
#156000
1!
11
1H
1J
1D
0I
1L
10
0N
1"
0E
1M
0O
02
0#
#168000
0!
01
0H
#180000
1!
11
1H
0J
0D
1I
0L
00
0"
#192000
0!
01
0H
#204000
1!
11
1H
1J
1D
0I
1L
10
1N
1"
1E
0M
1O
12
1Q
1#
1F
0P
1R
14
0T
1$
0G
1S
05
0%
#216000
0!
01
0H
#228000
1!
11
1H
0J
0D
1I
0L
00
0"
#240000
0!
01
0H
#252000
1!
11
1H
1J
1D
0I
1L
10
0N
1"
0E
1M
0O
02
0#
#264000
0!
01
0H
#276000
1!
11
1H
0J
0D
1I
0L
00
0"
#288000
0!
01
0H
#300000
1!
11
1H
1J
1D
0I
1L
10
1N
1"
1E
0M
1O
12
0Q
1#
0F
1P
0R
04
0$
#312000
0!
01
0H
#324000
1!
11
1H
0J
0D
1I
0L
00
0"
#336000
0!
01
0H
#348000
1!
11
1H
1J
1D
0I
1L
10
0N
1"
0E
1M
0O
02
0#
#360000
0!
01
0H
#372000
1!
11
1H
0J
0D
1I
0L
00
0"
#384000
0!
01
0H
#396000
1!
11
1H
1J
1D
0I
1L
10
1N
1"
1E
0M
1O
12
1Q
1#
1F
0P
1R
14
1T
1$
1G
0S
15
1%
#408000
0!
01
0H
#420000
1!
11
1H
0J
0D
1I
0L
00
0"
#432000
0!
01
0H
#444000
1!
11
1H
1J
1D
0I
1L
10
0N
1"
0E
1M
0O
02
0#
#456000
0!
01
0H
#468000
1!
11
1H
0J
0D
1I
0L
00
0"
#480000
0!
01
0H
#492000
1!
11
1H
1J
1D
0I
1L
10
1N
1"
1E
0M
1O
12
0Q
1#
0F
1P
0R
04
0$
#504000
0!
01
0H
#510000
1&
13
1K
0L
0O
1R
0T
0G
1S
05
0%
#516000
1!
11
1H
0J
0D
1I
1L
00
0N
0"
0E
1M
1O
02
1Q
0#
1F
0P
0R
14
1$
#528000
0!
01
0H
#540000
1!
11
1H
1J
1D
0I
0L
10
1"
#552000
0!
01
0H
#564000
1!
11
1H
0J
0D
1I
1L
00
1N
0"
1E
0M
0O
12
1#
#576000
0!
01
0H
#588000
1!
11
1H
1J
1D
0I
0L
10
1"
#600000
0!
01
0H
#612000
1!
11
1H
0J
0D
1I
1L
00
0N
0"
0E
1M
1O
02
0Q
0#
0F
1P
1R
04
1T
0$
1G
0S
15
1%
#624000
0!
01
0H
#636000
1!
11
1H
1J
1D
0I
0L
10
1"
#648000
0!
01
0H
#660000
1!
11
1H
0J
0D
1I
1L
00
1N
0"
1E
0M
0O
12
1#
#672000
0!
01
0H
#684000
1!
11
1H
1J
1D
0I
0L
10
1"
#696000
0!
01
0H
#708000
1!
11
1H
0J
0D
1I
1L
00
0N
0"
0E
1M
1O
02
1Q
0#
1F
0P
0R
14
1$
#720000
0!
01
0H
#732000
1!
11
1H
1J
1D
0I
0L
10
1"
#744000
0!
01
0H
#756000
1!
11
1H
0J
0D
1I
1L
00
1N
0"
1E
0M
0O
12
1#
#768000
0!
01
0H
#780000
1!
11
1H
1J
1D
0I
0L
10
1"
#792000
0!
01
0H
#804000
1!
11
1H
0J
0D
1I
1L
00
0N
0"
0E
1M
1O
02
0Q
0#
0F
1P
1R
04
0T
0$
0G
1S
05
0%
#816000
0!
01
0H
#828000
1!
11
1H
1J
1D
0I
0L
10
1"
#840000
0!
01
0H
#852000
1!
11
1H
0J
0D
1I
1L
00
1N
0"
1E
0M
0O
12
1#
#864000
0!
01
0H
#876000
1!
11
1H
1J
1D
0I
0L
10
1"
#888000
0!
01
0H
#900000
1!
11
1H
0J
0D
1I
1L
00
0N
0"
0E
1M
1O
02
1Q
0#
1F
0P
0R
14
1$
#912000
0!
01
0H
#924000
1!
11
1H
1J
1D
0I
0L
10
1"
#936000
0!
01
0H
#948000
1!
11
1H
0J
0D
1I
1L
00
1N
0"
1E
0M
0O
12
1#
#960000
0!
01
0H
#972000
1!
11
1H
1J
1D
0I
0L
10
1"
#984000
0!
01
0H
#996000
1!
11
1H
0J
0D
1I
1L
00
0N
0"
0E
1M
1O
02
0Q
0#
0F
1P
1R
04
1T
0$
1G
0S
15
1%
