Somador4Bits/simulation/qsim/Somador4Bits.msim.vcd
$comment
	File created using the following command:
		vcd file Somador4Bits.msim.vcd -direction
$end
$date
	Thu Aug 25 02:01:15 2022
$end
$version
	ModelSim Version 10.5b
$end
$timescale
	1ps
$end

$scope module Somador4Bits_vlg_vec_tst $end
$var reg 1 ! A0 $end
$var reg 1 " A1 $end
$var reg 1 # A2 $end
$var reg 1 $ A3 $end
$var reg 1 % B0 $end
$var reg 1 & B1 $end
$var reg 1 ' B2 $end
$var reg 1 ( B3 $end
$var reg 1 ) CIN $end
$var wire 1 * COUT $end
$var wire 1 + S0 $end
$var wire 1 , S1 $end
$var wire 1 - S2 $end
$var wire 1 . S3 $end

$scope module i1 $end
$var wire 1 / gnd $end
$var wire 1 0 vcc $end
$var wire 1 1 unknown $end
$var tri1 1 2 devclrn $end
$var tri1 1 3 devpor $end
$var tri1 1 4 devoe $end
$var wire 1 5 B0~combout $end
$var wire 1 6 CIN~combout $end
$var wire 1 7 A0~combout $end
$var wire 1 8 inst|inst5|4~0_combout $end
$var wire 1 9 inst|inst3|4~0_combout $end
$var wire 1 : B1~combout $end
$var wire 1 ; A1~combout $end
$var wire 1 < inst1|inst5|4~combout $end
$var wire 1 = A3~combout $end
$var wire 1 > inst1|inst3|4~0_combout $end
$var wire 1 ? B2~combout $end
$var wire 1 @ A2~combout $end
$var wire 1 A inst2|inst3|4~1_combout $end
$var wire 1 B B3~combout $end
$var wire 1 C inst2|inst3|4~0_combout $end
$var wire 1 D inst3|inst5|4~combout $end
$var wire 1 E inst2|inst5|4~combout $end
$var wire 1 F inst3|inst3|4~0_combout $end
$upscope $end
$upscope $end
$enddefinitions $end
#0
$dumpvars
0!
0"
0#
0$
0%
0&
0'
0(
0)
0*
0+
0,
0-
0.
0/
10
x1
12
13
14
05
06
07
08
09
0:
0;
0<
0=
0>
0?
0@
0A
0B
0C
0D
0E
0F
$end
#10000
1!
17
18
1+
#20000
1"
0!
1;
07
1<
08
1,
0+
#30000
1!
17
18
1+
#40000
1#
0"
0!
1@
0;
07
1E
0<
08
1-
0,
0+
#50000
1!
17
18
1+
#60000
1"
0!
1;
07
1<
08
1,
0+
#70000
1!
17
18
1+
#80000
1$
0#
0"
0!
1=
0@
0;
07
1D
0E
0<
08
1.
0-
0,
0+
#90000
1!
17
18
1+
#100000
1"
0!
1;
07
1<
08
1,
0+
#110000
1!
17
18
1+
#120000
1#
0"
0!
1@
0;
07
1E
0<
08
1-
0,
0+
#130000
1!
17
18
1+
#140000
1"
0!
1;
07
1<
08
1,
0+
#150000
1!
17
18
1+
#160000
1%
0$
0#
0"
0!
15
0=
0@
0;
07
0D
0E
0<
0.
0-
0,
#170000
1!
17
19
08
1<
0+
1,
#180000
1"
0!
1;
07
1>
0<
09
18
1E
0>
1<
0,
1+
0E
1-
1,
0-
#190000
1!
17
19
08
1>
0<
0+
1E
0,
1-
#200000
1#
0"
0!
1@
0;
07
0E
1A
0>
1<
09
18
1D
1E
0A
0<
0-
1,
1+
0D
1.
1-
0,
0.
#210000
1!
17
19
08
1<
0+
1,
#220000
1"
0!
1;
07
1>
0<
09
18
0E
1A
0>
1<
0,
1+
1D
1E
0A
0-
1,
0D
1.
1-
0.
#230000
1!
17
19
08
1>
0<
0+
0E
1A
0,
1D
0-
1.
#240000
1$
0#
0"
0!
1=
0@
0;
07
1F
0D
1E
0A
0>
1<
09
18
0F
1D
0E
0<
1*
0.
1-
1,
1+
0*
1.
0-
0,
#250000
1!
17
19
08
1<
0+
1,
#260000
1"
0!
1;
07
1>
0<
09
18
1E
0>
1<
0,
1+
0E
1-
1,
0-
#270000
1!
17
19
08
1>
0<
0+
1E
0,
1-
#280000
1#
0"
0!
1@
0;
07
0E
1A
0>
1<
09
18
1F
0D
1E
0A
0<
0-
1,
1+
0F
1D
1*
0.
1-
0,
0*
1.
#290000
1!
17
19
08
1<
0+
1,
#300000
1"
0!
1;
07
1>
0<
09
18
0E
1A
0>
1<
0,
1+
1F
0D
1E
0A
0-
1,
0F
1D
1*
0.
1-
0*
1.
#310000
1!
17
19
08
1>
0<
0+
0E
1A
0,
1F
0D
0-
1*
0.
#320000
1&
0%
0$
0#
0"
0!
1:
05
0=
0@
0;
07
09
0F
1D
1E
0A
0>
1<
0D
0*
1.
1-
0E
1,
0.
0-
#330000
1!
17
18
1+
#340000
1"
0!
1;
07
1>
0<
08
1E
0,
0+
1-
#350000
1!
17
18
1+
#360000
1#
0"
0!
1@
0;
07
0E
1A
0>
1<
08
1D
1E
0A
0-
1,
0+
0D
1.
1-
0.
#370000
1!
17
18
1+
#380000
1"
0!
1;
07
1>
0<
08
0E
1A
0,
0+
1D
0-
1.
#390000
1!
17
18
1+
#400000
1$
0#
0"
0!
1=
0@
0;
07
1F
0D
1E
0A
0>
1<
08
0F
1D
0E
1*
0.
1-
1,
0+
0*
1.
0-
#410000
1!
17
18
1+
#420000
1"
0!
1;
07
1>
0<
08
1E
0,
0+
1-
#430000
1!
17
18
1+
#440000
1#
0"
0!
1@
0;
07
0E
1A
0>
1<
08
1F
0D
1E
0A
0-
1,
0+
0F
1D
1*
0.
1-
0*
1.
#450000
1!
17
18
1+
#460000
1"
0!
1;
07
1>
0<
08
0E
1A
0,
0+
1F
0D
0-
1*
0.
#470000
1!
17
18
1+
#480000
1%
0$
0#
0"
0!
15
0=
0@
0;
07
0F
1D
1E
0A
0>
1<
0D
0E
0*
1.
1-
1,
0.
0-
#490000
1!
17
19
08
1>
0<
0+
1E
0,
1-
#500000
1"
0!
1;
07
1<
09
18
0<
1,
1+
0,
#510000
1!
17
19
08
1<
0+
1,
#520000
1#
0"
0!
1@
0;
07
0E
1A
0<
09
18
1D
0>
1<
0-
0,
1+
1E
0A
1.
1,
0D
1-
0.
#530000
1!
17
19
08
1>
0<
0+
0E
1A
0,
1D
0-
1.
#540000
1"
0!
1;
07
1<
09
18
0<
1,
1+
0,
#550000
1!
17
19
08
1<
0+
1,
#560000
1$
0#
0"
0!
1=
0@
0;
07
1F
0D
1E
0A
0<
09
18
0F
1D
0>
1<
1*
0.
1-
0,
1+
0E
0*
1.
1,
0-
#570000
1!
17
19
08
1>
0<
0+
1E
0,
1-
#580000
1"
0!
1;
07
1<
09
18
0<
1,
1+
0,
#590000
1!
17
19
08
1<
0+
1,
#600000
1#
0"
0!
1@
0;
07
0E
1A
0<
09
18
1F
0D
0>
1<
0-
0,
1+
1E
0A
1*
0.
1,
0F
1D
1-
0*
1.
#610000
1!
17
19
08
1>
0<
0+
0E
1A
0,
1F
0D
0-
1*
0.
#620000
1"
0!
1;
07
1<
09
18
0<
1,
1+
0,
#630000
1!
17
19
08
1<
0+
1,
#640000
1'
0&
0%
0$
0#
0"
0!
1?
0:
05
0=
0@
0;
07
0>
09
0F
1D
1E
0A
0<
0*
1.
0D
1-
0,
0.
#650000
1!
17
18
1+
#660000
1"
0!
1;
07
1<
08
1,
0+
#670000
1!
17
18
1+
#680000
1#
0"
0!
1@
0;
07
0E
1C
0<
08
1D
0-
0,
0+
1.
#690000
1!
17
18
1+
#700000
1"
0!
1;
07
1<
08
1,
0+
#710000
1!
17
18
1+
#720000
1$
0#
0"
0!
1=
0@
0;
07
1F
0D
1E
0C
0<
08
0F
1D
1*
0.
1-
0,
0+
0*
1.
#730000
1!
17
18
1+
#740000
1"
0!
1;
07
1<
08
1,
0+
#750000
1!
17
18
1+
#760000
1#
0"
0!
1@
0;
07
0E
1C
0<
08
1F
0D
0-
0,
0+
1*
0.
#770000
1!
17
18
1+
#780000
1"
0!
1;
07
1<
08
1,
0+
#790000
1!
17
18
1+
#800000
1%
0$
0#
0"
0!
15
0=
0@
0;
07
0F
1D
1E
0C
0<
0D
0*
1.
1-
0,
0.
#810000
1!
17
19
08
1<
0+
1,
#820000
1"
0!
1;
07
1>
0<
09
18
0E
1A
0>
1<
0,
1+
1D
1E
0A
0-
1,
0D
1.
1-
0.
#830000
1!
17
19
08
1>
0<
0+
0E
1A
0,
1D
0-
1.
#840000
1#
0"
0!
1@
0;
07
1E
1C
0>
1<
09
18
0E
0A
0<
1-
1,
1+
0-
0,
#850000
1!
17
19
08
1<
0+
1,
#860000
1"
0!
1;
07
1>
0<
09
18
1E
1A
0>
1<
0,
1+
0E
0A
1-
1,
0-
#870000
1!
17
19
08
1>
0<
0+
1E
1A
0,
1-
#880000
1$
0#
0"
0!
1=
0@
0;
07
1F
0D
0E
0C
0>
1<
09
18
1E
0A
0<
1*
0.
0-
1,
1+
0F
1D
1-
0,
0*
1.
#890000
1!
17
19
08
1<
0+
1,
#900000
1"
0!
1;
07
1>
0<
09
18
0E
1A
0>
1<
0,
1+
1F
0D
1E
0A
0-
1,
0F
1D
1*
0.
1-
0*
1.
#910000
1!
17
19
08
1>
0<
0+
0E
1A
0,
1F
0D
0-
1*
0.
#920000
1#
0"
0!
1@
0;
07
1E
1C
0>
1<
09
18
0E
0A
0<
1-
1,
1+
0-
0,
#930000
1!
17
19
08
1<
0+
1,
#940000
1"
0!
1;
07
1>
0<
09
18
1E
1A
0>
1<
0,
1+
0E
0A
1-
1,
0-
#950000
1!
17
19
08
1>
0<
0+
1E
1A
0,
1-
#960000
1&
0%
0$
0#
0"
0!
1:
05
0=
0@
0;
07
09
0F
1D
0E
0C
0>
1<
0*
1.
0-
1E
0A
1,
0D
1-
0.
#970000
1!
17
18
1+
#980000
1"
0!
1;
07
1>
0<
08
0E
1A
0,
0+
1D
0-
1.
#990000
1!
17
18
1+
#1000000
1#
0"
0!
1@
0;
07
1E
1C
0>
1<
08
0E
0A
1-
1,
0+
0-
#1010000
1!
17
18
1+
#1020000
1"
0!
1;
07
1>
0<
08
1E
1A
0,
0+
1-
#1030000
1!
17
18
1+
#1040000
1$
0#
0"
0!
1=
0@
0;
07
1F
0D
0E
0C
0>
1<
08
1E
0A
1*
0.
0-
1,
0+
0F
1D
1-
0*
1.
#1050000
1!
17
18
1+
#1060000
1"
0!
1;
07
1>
0<
08
0E
1A
0,
0+
1F
0D
0-
1*
0.
#1070000
1!
17
18
1+
#1080000
1#
0"
0!
1@
0;
07
1E
1C
0>
1<
08
0E
0A
1-
1,
0+
0-
#1090000
1!
17
18
1+
#1100000
1"
0!
1;
07
1>
0<
08
1E
1A
0,
0+
1-
#1110000
1!
17
18
1+
#1120000
1%
0$
0#
0"
0!
15
0=
0@
0;
07
0F
1D
0E
0C
0>
1<
1E
0A
0*
1.
0-
1,
0D
1-
0.
#1130000
1!
17
19
08
1>
0<
0+
0E
1A
0,
1D
0-
1.
#1140000
1"
0!
1;
07
1<
09
18
0<
1,
1+
0,
#1150000
1!
17
19
08
1<
0+
1,
#1160000
1#
0"
0!
1@
0;
07
1E
1C
0<
09
18
0>
1<
1-
0,
1+
0E
0A
1,
0-
#1170000
1!
17
19
08
1>
0<
0+
1E
1A
0,
1-
#1180000
1"
0!
1;
07
1<
09
18
0<
1,
1+
0,
#1190000
1!
17
19
08
1<
0+
1,
#1200000
1$
0#
0"
0!
1=
0@
0;
07
1F
0D
0E
0C
0<
09
18
0>
1<
1*
0.
0-
0,
1+
1E
0A
1,
0F
1D
1-
0*
1.
#1210000
1!
17
19
08
1>
0<
0+
0E
1A
0,
1F
0D
0-
1*
0.
#1220000
1"
0!
1;
07
1<
09
18
0<
1,
1+
0,
#1230000
1!
17
19
08
1<
0+
1,
#1240000
1#
0"
0!
1@
0;
07
1E
1C
0<
09
18
0>
1<
1-
0,
1+
0E
0A
1,
0-
#1250000
1!
17
19
08
1>
0<
0+
1E
1A
0,
1-
#1260000
1"
0!
1;
07
1<
09
18
0<
1,
1+
0,
#1270000
1!
17
19
08
1<
0+
1,
#1280000
1(
0'
0&
0%
0$
0#
0"
0!
1B
0?
0:
05
0=
0@
0;
07
0C
0A
0>
09
0F
1D
0E
0<
0*
1.
0-
0,
#1290000
1!
17
18
1+
#1300000
1"
0!
1;
07
1<
08
1,
0+
#1310000
1!
17
18
1+
#1320000
1#
0"
0!
1@
0;
07
1E
0<
08
1-
0,
0+
#1330000
1!
17
18
1+
#1340000
1"
0!
1;
07
1<
08
1,
0+
#1350000
1!
17
18
1+
#1360000
1$
0#
0"
0!
1=
0@
0;
07
1F
0D
0E
0<
08
1*
0.
0-
0,
0+
#1370000
1!
17
18
1+
#1380000
1"
0!
1;
07
1<
08
1,
0+
#1390000
1!
17
18
1+
#1400000
1#
0"
0!
1@
0;
07
1E
0<
08
1-
0,
0+
#1410000
1!
17
18
1+
#1420000
1"
0!
1;
07
1<
08
1,
0+
#1430000
1!
17
18
1+
#1440000
1%
0$
0#
0"
0!
15
0=
0@
0;
07
0F
1D
0E
0<
0*
1.
0-
0,
#1450000
1!
17
19
08
1<
0+
1,
#1460000
1"
0!
1;
07
1>
0<
09
18
1E
0>
1<
0,
1+
0E
1-
1,
0-
#1470000
1!
17
19
08
1>
0<
0+
1E
0,
1-
#1480000
1#
0"
0!
1@
0;
07
0E
1A
0>
1<
09
18
1F
0D
1E
0A
0<
0-
1,
1+
0F
1D
1*
0.
1-
0,
0*
1.
#1490000
1!
17
19
08
1<
0+
1,
#1500000
1"
0!
1;
07
1>
0<
09
18
0E
1A
0>
1<
0,
1+
1F
0D
1E
0A
0-
1,
0F
1D
1*
0.
1-
0*
1.
#1510000
1!
17
19
08
1>
0<
0+
0E
1A
0,
1F
0D
0-
1*
0.
#1520000
1$
0#
0"
0!
1=
0@
0;
07
1D
1E
0A
0>
1<
09
18
0D
0E
0<
1.
1-
1,
1+
0.
0-
0,
#1530000
1!
17
19
08
1<
0+
1,
#1540000
1"
0!
1;
07
1>
0<
09
18
1E
0>
1<
0,
1+
0E
1-
1,
0-
#1550000
1!
17
19
08
1>
0<
0+
1E
0,
1-
#1560000
1#
0"
0!
1@
0;
07
0E
1A
0>
1<
09
18
1D
1E
0A
0<
0-
1,
1+
0D
1.
1-
0,
0.
#1570000
1!
17
19
08
1<
0+
1,
#1580000
1"
0!
1;
07
1>
0<
09
18
0E
1A
0>
1<
0,
1+
1D
1E
0A
0-
1,
0D
1.
1-
0.
#1590000
1!
17
19
08
1>
0<
0+
0E
1A
0,
1D
0-
1.
#1600000
1&
0%
0$
0#
0"
0!
1:
05
0=
0@
0;
07
09
0D
1E
0A
0>
1<
0F
1D
0.
1-
0E
1,
0*
1.
0-
#1610000
1!
17
18
1+
#1620000
1"
0!
1;
07
1>
0<
08
1E
0,
0+
1-
#1630000
1!
17
18
1+
#1640000
1#
0"
0!
1@
0;
07
0E
1A
0>
1<
08
1F
0D
1E
0A
0-
1,
0+
0F
1D
1*
0.
1-
0*
1.
#1650000
1!
17
18
1+
#1660000
1"
0!
1;
07
1>
0<
08
0E
1A
0,
0+
1F
0D
0-
1*
0.
#1670000
1!
17
18
1+
#1680000
1$
0#
0"
0!
1=
0@
0;
07
1D
1E
0A
0>
1<
08
0D
0E
1.
1-
1,
0+
0.
0-
#1690000
1!
17
18
1+
#1700000
1"
0!
1;
07
1>
0<
08
1E
0,
0+
1-
#1710000
1!
17
18
1+
#1720000
1#
0"
0!
1@
0;
07
0E
1A
0>
1<
08
1D
1E
0A
0-
1,
0+
0D
1.
1-
0.
#1730000
1!
17
18
1+
#1740000
1"
0!
1;
07
1>
0<
08
0E
1A
0,
0+
1D
0-
1.
#1750000
1!
17
18
1+
#1760000
1%
0$
0#
0"
0!
15
0=
0@
0;
07
0D
1E
0A
0>
1<
0F
1D
0E
0.
1-
1,
0*
1.
0-
#1770000
1!
17
19
08
1>
0<
0+
1E
0,
1-
#1780000
1"
0!
1;
07
1<
09
18
0<
1,
1+
0,
#1790000
1!
17
19
08
1<
0+
1,
#1800000
1#
0"
0!
1@
0;
07
0E
1A
0<
09
18
1F
0D
0>
1<
0-
0,
1+
1E
0A
1*
0.
1,
0F
1D
1-
0*
1.
#1810000
1!
17
19
08
1>
0<
0+
0E
1A
0,
1F
0D
0-
1*
0.
#1820000
1"
0!
1;
07
1<
09
18
0<
1,
1+
0,
#1830000
1!
17
19
08
1<
0+
1,
#1840000
1$
0#
0"
0!
1=
0@
0;
07
1D
1E
0A
0<
09
18
0D
0>
1<
1.
1-
0,
1+
0E
0.
1,
0-
#1850000
1!
17
19
08
1>
0<
0+
1E
0,
1-
#1860000
1"
0!
1;
07
1<
09
18
0<
1,
1+
0,
#1870000
1!
17
19
08
1<
0+
1,
#1880000
1#
0"
0!
1@
0;
07
0E
1A
0<
09
18
1D
0>
1<
0-
0,
1+
1E
0A
1.
1,
0D
1-
0.
#1890000
1!
17
19
08
1>
0<
0+
0E
1A
0,
1D
0-
1.
#1900000
1"
0!
1;
07
1<
09
18
0<
1,
1+
0,
#1910000
1!
17
19
08
1<
0+
1,
#1920000
1'
0&
0%
0$
0#
0"
0!
1?
0:
05
0=
0@
0;
07
0>
09
0D
1E
0A
0<
0.
0F
1D
1-
0,
0*
1.
#1930000
1!
17
18
1+
#1940000
1"
0!
1;
07
1<
08
1,
0+
#1950000
1!
17
18
1+
#1960000
1#
0"
0!
1@
0;
07
0E
1C
0<
08
1F
0D
0-
0,
0+
1*
0.
#1970000
1!
17
18
1+
#1980000
1"
0!
1;
07
1<
08
1,
0+
#1990000
1!
17
18
1+
#2000000
1$
0#
0"
0!
1=
0@
0;
07
1D
1E
0C
0<
08
0D
1.
1-
0,
0+
0.
#2010000
1!
17
18
1+
#2020000
1"
0!
1;
07
1<
08
1,
0+
#2030000
1!
17
18
1+
#2040000
1#
0"
0!
1@
0;
07
0E
1C
0<
08
1D
0-
0,
0+
1.
#2050000
1!
17
18
1+
#2060000
1"
0!
1;
07
1<
08
1,
0+
#2070000
1!
17
18
1+
#2080000
1%
0$
0#
0"
0!
15
0=
0@
0;
07
0D
1E
0C
0<
0F
1D
0.
1-
0,
0*
1.
#2090000
1!
17
19
08
1<
0+
1,
#2100000
1"
0!
1;
07
1>
0<
09
18
0E
1A
0>
1<
0,
1+
1F
0D
1E
0A
0-
1,
0F
1D
1*
0.
1-
0*
1.
#2110000
1!
17
19
08
1>
0<
0+
0E
1A
0,
1F
0D
0-
1*
0.
#2120000
1#
0"
0!
1@
0;
07
1E
1C
0>
1<
09
18
0E
0A
0<
1-
1,
1+
0-
0,
#2130000
1!
17
19
08
1<
0+
1,
#2140000
1"
0!
1;
07
1>
0<
09
18
1E
1A
0>
1<
0,
1+
0E
0A
1-
1,
0-
#2150000
1!
17
19
08
1>
0<
0+
1E
1A
0,
1-
#2160000
1$
0#
0"
0!
1=
0@
0;
07
1D
0E
0C
0>
1<
09
18
1E
0A
0<
1.
0-
1,
1+
0D
1-
0,
0.
#2170000
1!
17
19
08
1<
0+
1,
#2180000
1"
0!
1;
07
1>
0<
09
18
0E
1A
0>
1<
0,
1+
1D
1E
0A
0-
1,
0D
1.
1-
0.
#2190000
1!
17
19
08
1>
0<
0+
0E
1A
0,
1D
0-
1.
#2200000
1#
0"
0!
1@
0;
07
1E
1C
0>
1<
09
18
0E
0A
0<
1-
1,
1+
0-
0,
#2210000
1!
17
19
08
1<
0+
1,
#2220000
1"
0!
1;
07
1>
0<
09
18
1E
1A
0>
1<
0,
1+
0E
0A
1-
1,
0-
#2230000
1!
17
19
08
1>
0<
0+
1E
1A
0,
1-
#2240000
1&
0%
0$
0#
0"
0!
1:
05
0=
0@
0;
07
09
0D
0E
0C
0>
1<
0.
0-
1E
0A
1,
0F
1D
1-
0*
1.
#2250000
1!
17
18
1+
#2260000
1"
0!
1;
07
1>
0<
08
0E
1A
0,
0+
1F
0D
0-
1*
0.
#2270000
1!
17
18
1+
#2280000
1#
0"
0!
1@
0;
07
1E
1C
0>
1<
08
0E
0A
1-
1,
0+
0-
#2290000
1!
17
18
1+
#2300000
1"
0!
1;
07
1>
0<
08
1E
1A
0,
0+
1-
#2310000
1!
17
18
1+
#2320000
1$
0#
0"
0!
1=
0@
0;
07
1D
0E
0C
0>
1<
08
1E
0A
1.
0-
1,
0+
0D
1-
0.
#2330000
1!
17
18
1+
#2340000
1"
0!
1;
07
1>
0<
08
0E
1A
0,
0+
1D
0-
1.
#2350000
1!
17
18
1+
#2360000
1#
0"
0!
1@
0;
07
1E
1C
0>
1<
08
0E
0A
1-
1,
0+
0-
#2370000
1!
17
18
1+
#2380000
1"
0!
1;
07
1>
0<
08
1E
1A
0,
0+
1-
#2390000
1!
17
18
1+
#2400000
1%
0$
0#
0"
0!
15
0=
0@
0;
07
0D
0E
0C
0>
1<
1E
0A
0.
0-
1,
0F
1D
1-
0*
1.
#2410000
1!
17
19
08
1>
0<
0+
0E
1A
0,
1F
0D
0-
1*
0.
#2420000
1"
0!
1;
07
1<
09
18
0<
1,
1+
0,
#2430000
1!
17
19
08
1<
0+
1,
#2440000
1#
0"
0!
1@
0;
07
1E
1C
0<
09
18
0>
1<
1-
0,
1+
0E
0A
1,
0-
#2450000
1!
17
19
08
1>
0<
0+
1E
1A
0,
1-
#2460000
1"
0!
1;
07
1<
09
18
0<
1,
1+
0,
#2470000
1!
17
19
08
1<
0+
1,
#2480000
1$
0#
0"
0!
1=
0@
0;
07
1D
0E
0C
0<
09
18
0>
1<
1.
0-
0,
1+
1E
0A
1,
0D
1-
0.
#2490000
1!
17
19
08
1>
0<
0+
0E
1A
0,
1D
0-
1.
#2500000
1"
0!
1;
07
1<
09
18
0<
1,
1+
0,
#2510000
1!
17
19
08
1<
0+
1,
#2520000
1#
0"
0!
1@
0;
07
1E
1C
0<
09
18
0>
1<
1-
0,
1+
0E
0A
1,
0-
#2530000
1!
17
19
08
1>
0<
0+
1E
1A
0,
1-
#2540000
1"
0!
1;
07
1<
09
18
0<
1,
1+
0,
#2550000
1!
17
19
08
1<
0+
1,
#2560000
0(
0'
0&
0%
0$
0#
0"
0!
0B
0?
0:
05
0=
0@
0;
07
0F
0C
0A
0>
09
0D
0E
0<
0*
0.
0-
0,
#2570000
1!
17
18
1+
#2580000
1"
0!
1;
07
1<
08
1,
0+
#2590000
1!
17
18
1+
#2600000
1#
0"
0!
1@
0;
07
1E
0<
08
1-
0,
0+
#2610000
1!
17
18
1+
#2620000
1"
0!
1;
07
1<
08
1,
0+
#2630000
1!
17
18
1+
#2640000
1$
0#
0"
0!
1=
0@
0;
07
1D
0E
0<
08
1.
0-
0,
0+
#2650000
1!
17
18
1+
#2660000
1"
0!
1;
07
1<
08
1,
0+
#2670000
1!
17
18
1+
#2680000
1#
0"
0!
1@
0;
07
1E
0<
08
1-
0,
0+
#2690000
1!
17
18
1+
#2700000
1"
0!
1;
07
1<
08
1,
0+
#2710000
1!
17
18
1+
#2720000
1%
0$
0#
0"
0!
15
0=
0@
0;
07
0D
0E
0<
0.
0-
0,
#2730000
1!
17
19
08
1<
0+
1,
#2740000
1"
0!
1;
07
1>
0<
09
18
1E
0>
1<
0,
1+
0E
1-
1,
0-
#2750000
1!
17
19
08
1>
0<
0+
1E
0,
1-
#2760000
1#
0"
0!
1@
0;
07
0E
1A
0>
1<
09
18
1D
1E
0A
0<
0-
1,
1+
0D
1.
1-
0,
0.
#2770000
1!
17
19
08
1<
0+
1,
#2780000
1"
0!
1;
07
1>
0<
09
18
0E
1A
0>
1<
0,
1+
1D
1E
0A
0-
1,
0D
1.
1-
0.
#2790000
1!
17
19
08
1>
0<
0+
0E
1A
0,
1D
0-
1.
#2800000
1$
0#
0"
0!
1=
0@
0;
07
1F
0D
1E
0A
0>
1<
09
18
0F
1D
0E
0<
1*
0.
1-
1,
1+
0*
1.
0-
0,
#2810000
1!
17
19
08
1<
0+
1,
#2820000
1"
0!
1;
07
1>
0<
09
18
1E
0>
1<
0,
1+
0E
1-
1,
0-
#2830000
1!
17
19
08
1>
0<
0+
1E
0,
1-
#2840000
1#
0"
0!
1@
0;
07
0E
1A
0>
1<
09
18
1F
0D
1E
0A
0<
0-
1,
1+
0F
1D
1*
0.
1-
0,
0*
1.
#2850000
1!
17
19
08
1<
0+
1,
#2860000
1"
0!
1;
07
1>
0<
09
18
0E
1A
0>
1<
0,
1+
1F
0D
1E
0A
0-
1,
0F
1D
1*
0.
1-
0*
1.
#2870000
1!
17
19
08
1>
0<
0+
0E
1A
0,
1F
0D
0-
1*
0.
#2880000
1&
0%
0$
0#
0"
0!
1:
05
0=
0@
0;
07
09
0F
1D
1E
0A
0>
1<
0D
0*
1.
1-
0E
1,
0.
0-
#2890000
1!
17
18
1+
#2900000
1"
0!
1;
07
1>
0<
08
1E
0,
0+
1-
#2910000
1!
17
18
1+
#2920000
1#
0"
0!
1@
0;
07
0E
1A
0>
1<
08
1D
1E
0A
0-
1,
0+
0D
1.
1-
0.
#2930000
1!
17
18
1+
#2940000
1"
0!
1;
07
1>
0<
08
0E
1A
0,
0+
1D
0-
1.
#2950000
1!
17
18
1+
#2960000
1$
0#
0"
0!
1=
0@
0;
07
1F
0D
1E
0A
0>
1<
08
0F
1D
0E
1*
0.
1-
1,
0+
0*
1.
0-
#2970000
1!
17
18
1+
#2980000
1"
0!
1;
07
1>
0<
08
1E
0,
0+
1-
#2990000
1!
17
18
1+
#3000000
1#
0"
0!
1@
0;
07
0E
1A
0>
1<
08
1F
0D
1E
0A
0-
1,
0+
0F
1D
1*
0.
1-
0*
1.
#3010000
1!
17
18
1+
#3020000
1"
0!
1;
07
1>
0<
08
0E
1A
0,
0+
1F
0D
0-
1*
0.
#3030000
1!
17
18
1+
#3040000
1%
0$
0#
0"
0!
15
0=
0@
0;
07
0F
1D
1E
0A
0>
1<
0D
0E
0*
1.
1-
1,
0.
0-
#3050000
1!
17
19
08
1>
0<
0+
1E
0,
1-
#3060000
1"
0!
1;
07
1<
09
18
0<
1,
1+
0,
#3070000
1!
17
19
08
1<
0+
1,
#3080000
1#
0"
0!
1@
0;
07
0E
1A
0<
09
18
1D
0>
1<
0-
0,
1+
1E
0A
1.
1,
0D
1-
0.
#3090000
1!
17
19
08
1>
0<
0+
0E
1A
0,
1D
0-
1.
#3100000
1"
0!
1;
07
1<
09
18
0<
1,
1+
0,
#3110000
1!
17
19
08
1<
0+
1,
#3120000
1$
0#
0"
0!
1=
0@
0;
07
1F
0D
1E
0A
0<
09
18
0F
1D
0>
1<
1*
0.
1-
0,
1+
0E
0*
1.
1,
0-
#3130000
1!
17
19
08
1>
0<
0+
1E
0,
1-
#3140000
1"
0!
1;
07
1<
09
18
0<
1,
1+
0,
#3150000
1!
17
19
08
1<
0+
1,
#3160000
1#
0"
0!
1@
0;
07
0E
1A
0<
09
18
1F
0D
0>
1<
0-
0,
1+
1E
0A
1*
0.
1,
0F
1D
1-
0*
1.
#3170000
1!
17
19
08
1>
0<
0+
0E
1A
0,
1F
0D
0-
1*
0.
#3180000
1"
0!
1;
07
1<
09
18
0<
1,
1+
0,
#3190000
1!
17
19
08
1<
0+
1,
#3200000
1'
0&
0%
0$
0#
0"
0!
1?
0:
05
0=
0@
0;
07
0>
09
0F
1D
1E
0A
0<
0*
1.
0D
1-
0,
0.
#3210000
1!
17
18
1+
#3220000
1"
0!
1;
07
1<
08
1,
0+
#3230000
1!
17
18
1+
#3240000
1#
0"
0!
1@
0;
07
0E
1C
0<
08
1D
0-
0,
0+
1.
#3250000
1!
17
18
1+
#3260000
1"
0!
1;
07
1<
08
1,
0+
#3270000
1!
17
18
1+
#3280000
1$
0#
0"
0!
1=
0@
0;
07
1F
0D
1E
0C
0<
08
0F
1D
1*
0.
1-
0,
0+
0*
1.
#3290000
1!
17
18
1+
#3300000
1"
0!
1;
07
1<
08
1,
0+
#3310000
1!
17
18
1+
#3320000
1#
0"
0!
1@
0;
07
0E
1C
0<
08
1F
0D
0-
0,
0+
1*
0.
#3330000
1!
17
18
1+
#3340000
1"
0!
1;
07
1<
08
1,
0+
#3350000
1!
17
18
1+
#3360000
1%
0$
0#
0"
0!
15
0=
0@
0;
07
0F
1D
1E
0C
0<
0D
0*
1.
1-
0,
0.
#3370000
1!
17
19
08
1<
0+
1,
#3380000
1"
0!
1;
07
1>
0<
09
18
0E
1A
0>
1<
0,
1+
1D
1E
0A
0-
1,
0D
1.
1-
0.
#3390000
1!
17
19
08
1>
0<
0+
0E
1A
0,
1D
0-
1.
#3400000
1#
0"
0!
1@
0;
07
1E
1C
0>
1<
09
18
0E
0A
0<
1-
1,
1+
0-
0,
#3410000
1!
17
19
08
1<
0+
1,
#3420000
1"
0!
1;
07
1>
0<
09
18
1E
1A
0>
1<
0,
1+
0E
0A
1-
1,
0-
#3430000
1!
17
19
08
1>
0<
0+
1E
1A
0,
1-
#3440000
1$
0#
0"
0!
1=
0@
0;
07
1F
0D
0E
0C
0>
1<
09
18
1E
0A
0<
1*
0.
0-
1,
1+
0F
1D
1-
0,
0*
1.
#3450000
1!
17
19
08
1<
0+
1,
#3460000
1"
0!
1;
07
1>
0<
09
18
0E
1A
0>
1<
0,
1+
1F
0D
1E
0A
0-
1,
0F
1D
1*
0.
1-
0*
1.
#3470000
1!
17
19
08
1>
0<
0+
0E
1A
0,
1F
0D
0-
1*
0.
#3480000
1#
0"
0!
1@
0;
07
1E
1C
0>
1<
09
18
0E
0A
0<
1-
1,
1+
0-
0,
#3490000
1!
17
19
08
1<
0+
1,
#3500000
1"
0!
1;
07
1>
0<
09
18
1E
1A
0>
1<
0,
1+
0E
0A
1-
1,
0-
#3510000
1!
17
19
08
1>
0<
0+
1E
1A
0,
1-
#3520000
1&
0%
0$
0#
0"
0!
1:
05
0=
0@
0;
07
09
0F
1D
0E
0C
0>
1<
0*
1.
0-
1E
0A
1,
0D
1-
0.
#3530000
1!
17
18
1+
#3540000
1"
0!
1;
07
1>
0<
08
0E
1A
0,
0+
1D
0-
1.
#3550000
1!
17
18
1+
#3560000
1#
0"
0!
1@
0;
07
1E
1C
0>
1<
08
0E
0A
1-
1,
0+
0-
#3570000
1!
17
18
1+
