LAB6/simulation/qsim/LAB6.msim.vcd
$comment
	File created using the following command:
		vcd file LAB6.msim.vcd -direction
$end
$date
	Mon Nov  7 16:48:14 2022
$end
$version
	ModelSim Version 10.5b
$end
$timescale
	1ps
$end

$scope module lab6_vhd_vec_tst $end
$var wire 1 ! Clock $end
$var wire 1 " Entrada $end
$var wire 1 # Reset $end
$var wire 1 $ Saida [2] $end
$var wire 1 % Saida [1] $end
$var wire 1 & Saida [0] $end
$var wire 1 ' Sequencia $end

$scope module i1 $end
$var wire 1 ( gnd $end
$var wire 1 ) vcc $end
$var wire 1 * unknown $end
$var wire 1 + devoe $end
$var wire 1 , devclrn $end
$var wire 1 - devpor $end
$var wire 1 . ww_devoe $end
$var wire 1 / ww_devclrn $end
$var wire 1 0 ww_devpor $end
$var wire 1 1 ww_Sequencia $end
$var wire 1 2 ww_Clock $end
$var wire 1 3 ww_Entrada $end
$var wire 1 4 ww_Reset $end
$var wire 1 5 ww_Saida [2] $end
$var wire 1 6 ww_Saida [1] $end
$var wire 1 7 ww_Saida [0] $end
$var wire 1 8 \~QUARTUS_CREATED_ADC1~_CHSEL_bus\ [4] $end
$var wire 1 9 \~QUARTUS_CREATED_ADC1~_CHSEL_bus\ [3] $end
$var wire 1 : \~QUARTUS_CREATED_ADC1~_CHSEL_bus\ [2] $end
$var wire 1 ; \~QUARTUS_CREATED_ADC1~_CHSEL_bus\ [1] $end
$var wire 1 < \~QUARTUS_CREATED_ADC1~_CHSEL_bus\ [0] $end
$var wire 1 = \~QUARTUS_CREATED_ADC2~_CHSEL_bus\ [4] $end
$var wire 1 > \~QUARTUS_CREATED_ADC2~_CHSEL_bus\ [3] $end
$var wire 1 ? \~QUARTUS_CREATED_ADC2~_CHSEL_bus\ [2] $end
$var wire 1 @ \~QUARTUS_CREATED_ADC2~_CHSEL_bus\ [1] $end
$var wire 1 A \~QUARTUS_CREATED_ADC2~_CHSEL_bus\ [0] $end
$var wire 1 B \Reset~inputclkctrl_INCLK_bus\ [3] $end
$var wire 1 C \Reset~inputclkctrl_INCLK_bus\ [2] $end
$var wire 1 D \Reset~inputclkctrl_INCLK_bus\ [1] $end
$var wire 1 E \Reset~inputclkctrl_INCLK_bus\ [0] $end
$var wire 1 F \Clock~inputclkctrl_INCLK_bus\ [3] $end
$var wire 1 G \Clock~inputclkctrl_INCLK_bus\ [2] $end
$var wire 1 H \Clock~inputclkctrl_INCLK_bus\ [1] $end
$var wire 1 I \Clock~inputclkctrl_INCLK_bus\ [0] $end
$var wire 1 J \~QUARTUS_CREATED_GND~I_combout\ $end
$var wire 1 K \~QUARTUS_CREATED_UNVM~~busy\ $end
$var wire 1 L \~QUARTUS_CREATED_ADC1~~eoc\ $end
$var wire 1 M \~QUARTUS_CREATED_ADC2~~eoc\ $end
$var wire 1 N \Sequencia~output_o\ $end
$var wire 1 O \Saida[2]~output_o\ $end
$var wire 1 P \Saida[1]~output_o\ $end
$var wire 1 Q \Saida[0]~output_o\ $end
$var wire 1 R \Clock~input_o\ $end
$var wire 1 S \Clock~inputclkctrl_outclk\ $end
$var wire 1 T \Entrada~input_o\ $end
$var wire 1 U \inst|Selector0~0_combout\ $end
$var wire 1 V \Reset~input_o\ $end
$var wire 1 W \Reset~inputclkctrl_outclk\ $end
$var wire 1 X \inst|estado.s0~q\ $end
$var wire 1 Y \inst|Selector1~0_combout\ $end
$var wire 1 Z \inst|estado.s1~q\ $end
$var wire 1 [ \inst|Selector2~0_combout\ $end
$var wire 1 \ \inst|estado.s2~q\ $end
$var wire 1 ] \inst|estado~15_combout\ $end
$var wire 1 ^ \inst|estado.s3~q\ $end
$var wire 1 _ \inst|estado~16_combout\ $end
$var wire 1 ` \inst|estado.s4~q\ $end
$var wire 1 a \inst|estado~17_combout\ $end
$var wire 1 b \inst|estado.s5~q\ $end
$var wire 1 c \inst|estado~18_combout\ $end
$var wire 1 d \inst|estado.s6~q\ $end
$var wire 1 e \inst|estado~14_combout\ $end
$var wire 1 f \inst|estado.s7~q\ $end
$var wire 1 g \inst|WideOr3~0_combout\ $end
$var wire 1 h \inst|WideOr4~0_combout\ $end
$var wire 1 i \inst|WideOr5~0_combout\ $end
$var wire 1 j \ALT_INV_Clock~inputclkctrl_outclk\ $end
$var wire 1 k \inst|ALT_INV_WideOr5~0_combout\ $end
$var wire 1 l \inst|ALT_INV_WideOr4~0_combout\ $end
$var wire 1 m \inst|ALT_INV_WideOr3~0_combout\ $end
$upscope $end
$upscope $end
$enddefinitions $end
#0
$dumpvars
0!
1"
1#
0'
0(
1)
x*
1+
1,
1-
1.
1/
10
01
02
13
14
0J
zK
zL
zM
0N
0O
0P
0Q
0R
0S
1T
0U
1V
1W
0X
0Y
0Z
0[
0\
0]
0^
0_
0`
0a
0b
0c
0d
0e
0f
1g
1h
1i
1j
0k
0l
0m
05
06
07
1F
1G
1H
0I
1B
1C
1D
1E
08
09
0:
0;
0<
0=
0>
0?
0@
0A
0$
0%
0&
$end
#10000
1!
0"
12
03
0T
1R
1I
1U
1Y
1S
0j
#20000
0!
02
0R
0I
0S
1j
1X
1Z
1[
0Y
0i
1k
1Q
17
1&
#30000
1!
1"
12
13
1T
1R
1I
0U
0[
1S
0j
#40000
0!
02
0R
0I
0S
1j
0X
0Z
1i
0k
0Q
07
0&
#50000
1!
12
1R
1I
1S
0j
#60000
0!
0"
02
03
0T
0R
0I
1U
1Y
0S
1j
1X
1Z
1[
0Y
0i
1k
1Q
17
1&
#70000
1!
12
1R
1I
1S
0j
#80000
0!
1"
02
13
1T
0R
0I
0U
0[
0S
1j
0X
0Z
1i
0k
0Q
07
0&
#90000
1!
0"
12
03
0T
1R
1I
1U
1Y
1S
0j
#100000
0!
02
0R
0I
0S
1j
1X
1Z
1[
0Y
0i
1k
1Q
17
1&
#110000
1!
1"
12
13
1T
1R
1I
0U
0[
1S
0j
#120000
0!
02
0R
0I
0S
1j
0X
0Z
1i
0k
0Q
07
0&
#130000
1!
12
1R
1I
1S
0j
#140000
0!
0"
02
03
0T
0R
0I
1U
1Y
0S
1j
1X
1Z
1[
0Y
0i
1k
1Q
17
1&
#150000
1!
1"
12
13
1T
1R
1I
0U
0[
1S
0j
#160000
0!
0"
02
03
0T
0R
0I
1U
1[
0S
1j
0Z
1\
1i
0h
1l
0k
0Q
1P
07
16
0&
1%
#170000
1!
1"
12
13
1T
1R
1I
0[
1]
1S
0j
#180000
0!
0"
02
03
0T
0R
0I
1[
0]
0S
1j
#190000
1!
1"
12
13
1T
1R
1I
0[
1]
1S
0j
#200000
0!
0"
02
03
0T
0R
0I
1[
0]
0S
1j
#210000
1!
12
1R
1I
1S
0j
#220000
0!
02
0R
0I
0S
1j
#230000
1!
12
1R
1I
1S
0j
#240000
0!
02
0R
0I
0S
1j
#250000
1!
1"
12
13
1T
1R
1I
0[
1]
1S
0j
#260000
0!
0"
02
03
0T
0R
0I
1[
0]
0S
1j
#270000
1!
12
1R
1I
1S
0j
#280000
0!
02
0R
0I
0S
1j
#290000
1!
12
1R
1I
1S
0j
#300000
0!
1"
02
13
1T
0R
0I
0[
1]
0S
1j
0\
1^
1_
0]
0i
1k
1Q
17
1&
#310000
1!
12
1R
1I
1S
0j
#320000
0!
02
0R
0I
0S
1j
0^
1`
1h
1i
0U
0_
0g
1m
0k
0l
0P
0Q
1O
06
07
15
0&
0%
1$
#330000
1!
12
1R
1I
1S
0j
#340000
0!
0"
02
03
0T
0R
0I
1U
1a
0S
1j
0`
1b
1c
0a
0i
1k
1Q
17
1&
#350000
1!
12
1R
1I
1S
0j
#360000
0!
02
0R
0I
0S
1j
0b
1d
1[
1i
0c
0h
1l
0k
0Q
1P
07
16
0&
1%
#370000
1!
12
1R
1I
1S
0j
#380000
0!
1"
02
13
1T
0R
0I
0[
1e
0S
1j
0d
1f
1N
0U
0e
0i
1k
11
1'
1Q
17
1&
#390000
1!
12
1R
1I
1S
0j
#400000
0!
0"
02
03
0T
0R
0I
1U
1Y
0S
1j
1Z
0f
0N
0Y
1[
1g
1h
0l
0m
01
0'
0O
0P
05
06
0%
0$
#410000
1!
12
1R
1I
1S
0j
#420000
0!
02
0R
0I
0S
1j
0Z
1\
1i
0h
1l
0k
0Q
1P
07
16
0&
1%
#430000
1!
12
1R
1I
1S
0j
#440000
0!
1"
02
13
1T
0R
0I
0[
1]
0S
1j
0\
1^
1_
0]
0i
1k
1Q
17
1&
#450000
1!
12
1R
1I
1S
0j
#460000
0!
02
0R
0I
0S
1j
0^
1`
1h
1i
0U
0_
0g
1m
0k
0l
0P
0Q
1O
06
07
15
0&
0%
1$
#470000
1!
0"
12
03
0T
1R
1I
1U
1a
1S
0j
#480000
0!
1"
02
13
1T
0R
0I
0U
0a
0S
1j
0X
0`
1g
0m
0O
05
0$
#490000
1!
0"
12
03
0T
1R
1I
1U
1Y
1S
0j
#500000
0!
1"
02
13
1T
0R
0I
0U
0Y
0S
1j
#510000
1!
12
1R
1I
1S
0j
#520000
0!
02
0R
0I
0S
1j
#530000
1!
0"
12
03
0T
1R
1I
1U
1Y
1S
0j
#540000
0!
1"
02
13
1T
0R
0I
0U
0Y
0S
1j
#550000
1!
12
1R
1I
1S
0j
#560000
0!
0"
02
03
0T
0R
0I
1U
1Y
0S
1j
1X
1Z
1[
0Y
0i
1k
1Q
17
1&
#570000
1!
1"
12
13
1T
1R
1I
0U
0[
1S
0j
#580000
0!
02
0R
0I
0S
1j
0X
0Z
1i
0k
0Q
07
0&
#590000
1!
12
1R
1I
1S
0j
#600000
0!
0"
02
03
0T
0R
0I
1U
1Y
0S
1j
1X
1Z
1[
0Y
0i
1k
1Q
17
1&
#610000
1!
12
1R
1I
1S
0j
#620000
0!
1"
02
13
1T
0R
0I
0U
0[
0S
1j
0X
0Z
1i
0k
0Q
07
0&
#630000
1!
12
1R
1I
1S
0j
#640000
0!
02
0R
0I
0S
1j
#650000
1!
0"
12
03
0T
1R
1I
1U
1Y
1S
0j
#660000
0!
02
0R
0I
0S
1j
1X
1Z
1[
0Y
0i
1k
1Q
17
1&
#670000
1!
12
1R
1I
1S
0j
#680000
0!
02
0R
0I
0S
1j
0Z
1\
1i
0h
1l
0k
0Q
1P
07
16
0&
1%
#690000
1!
12
1R
1I
1S
0j
#700000
0!
1"
02
13
1T
0R
0I
0[
1]
0S
1j
0\
1^
1_
0]
0i
1k
1Q
17
1&
#710000
1!
12
1R
1I
1S
0j
#720000
0!
02
0R
0I
0S
1j
0^
1`
1h
1i
0U
0_
0g
1m
0k
0l
0P
0Q
1O
06
07
15
0&
0%
1$
#730000
1!
12
1R
1I
1S
0j
#740000
0!
0"
02
03
0T
0R
0I
1U
1a
0S
1j
0`
1b
1c
0a
0i
1k
1Q
17
1&
#750000
1!
12
1R
1I
1S
0j
#760000
0!
02
0R
0I
0S
1j
0b
1d
1[
1i
0c
0h
1l
0k
0Q
1P
07
16
0&
1%
#770000
1!
12
1R
1I
1S
0j
#780000
0!
1"
02
13
1T
0R
0I
0[
1e
0S
1j
0d
1f
1N
0U
0e
0i
1k
11
1'
1Q
17
1&
#790000
1!
12
1R
1I
1S
0j
#800000
0!
02
0R
0I
0S
1j
0X
0f
0N
1g
1h
1i
0k
0l
0m
01
0'
0O
0P
0Q
05
06
07
0&
0%
0$
#810000
1!
12
1R
1I
1S
0j
#820000
0!
0"
02
03
0T
0R
0I
1U
1Y
0S
1j
1X
1Z
1[
0Y
0i
1k
1Q
17
1&
#830000
1!
12
1R
1I
1S
0j
#840000
0!
02
0R
0I
0S
1j
0Z
1\
1i
0h
1l
0k
0Q
1P
07
16
0&
1%
#850000
1!
12
1R
1I
1S
0j
#860000
0!
1"
02
13
1T
0R
0I
0[
1]
0S
1j
0\
1^
1_
0]
0i
1k
1Q
17
1&
#870000
1!
12
1R
1I
1S
0j
#880000
0!
0"
02
03
0T
0R
0I
0U
0_
0S
1j
0X
0^
1U
1Y
1h
1i
0k
0l
0P
0Q
06
07
0&
0%
#890000
1!
1"
12
13
1T
1R
1I
0U
0Y
1S
0j
#900000
0!
02
0R
0I
0S
1j
#910000
1!
0"
12
03
0T
1R
1I
1U
1Y
1S
0j
#920000
0!
1"
02
13
1T
0R
0I
0U
0Y
0S
1j
#930000
1!
0"
12
03
0T
1R
1I
1U
1Y
1S
0j
#940000
0!
02
0R
0I
0S
1j
1X
1Z
1[
0Y
0i
1k
1Q
17
1&
#950000
1!
1"
12
13
1T
1R
1I
0U
0[
1S
0j
#960000
0!
02
0R
0I
0S
1j
0X
0Z
1i
0k
0Q
07
0&
#970000
1!
0"
12
03
0T
1R
1I
1U
1Y
1S
0j
#980000
0!
1"
02
13
1T
0R
0I
0U
0Y
0S
1j
#990000
1!
12
1R
1I
1S
0j
