Registradores/simulation/qsim/Registradores.msim.vcd
$comment
	File created using the following command:
		vcd file Registradores.msim.vcd -direction
$end
$date
	Thu Sep 29 00:12:29 2022
$end
$version
	ModelSim Version 10.5b
$end
$timescale
	1ps
$end

$scope module registradores_vhd_vec_tst $end
$var wire 1 ! A0 $end
$var wire 1 " A1 $end
$var wire 1 # A2 $end
$var wire 1 $ A3 $end
$var wire 1 % Botao $end
$var wire 1 & Clear $end
$var wire 1 ' Clock $end
$var wire 1 ( Controlador $end
$var wire 1 ) HEX0a $end
$var wire 1 * HEX0b $end
$var wire 1 + HEX0c $end
$var wire 1 , HEX0d $end
$var wire 1 - HEX0e $end
$var wire 1 . HEX0f $end
$var wire 1 / HEX0g $end
$var wire 1 0 HEX1a $end
$var wire 1 1 HEX1b $end
$var wire 1 2 HEX1c $end
$var wire 1 3 HEX1d $end
$var wire 1 4 HEX1e $end
$var wire 1 5 HEX1f $end
$var wire 1 6 HEX1g $end
$var wire 1 7 HEX2a $end
$var wire 1 8 HEX2b $end
$var wire 1 9 HEX2c $end
$var wire 1 : HEX2d $end
$var wire 1 ; HEX2e $end
$var wire 1 < HEX2f $end
$var wire 1 = HEX2g $end
$var wire 1 > HEX3a $end
$var wire 1 ? HEX3b $end
$var wire 1 @ HEX3c $end
$var wire 1 A HEX3d $end
$var wire 1 B HEX3e $end
$var wire 1 C HEX3f $end
$var wire 1 D HEX3g $end
$var wire 1 E HEX4a $end
$var wire 1 F HEX4b $end
$var wire 1 G HEX4c $end
$var wire 1 H HEX4d $end
$var wire 1 I HEX4e $end
$var wire 1 J HEX4f $end
$var wire 1 K HEX4g $end
$var wire 1 L HEX5a $end
$var wire 1 M HEX5b $end
$var wire 1 N HEX5c $end
$var wire 1 O HEX5d $end
$var wire 1 P HEX5e $end
$var wire 1 Q HEX5f $end
$var wire 1 R HEX5g $end
$var wire 1 S Preset $end

$scope module i1 $end
$var wire 1 T gnd $end
$var wire 1 U vcc $end
$var wire 1 V unknown $end
$var wire 1 W devoe $end
$var wire 1 X devclrn $end
$var wire 1 Y devpor $end
$var wire 1 Z ww_devoe $end
$var wire 1 [ ww_devclrn $end
$var wire 1 \ ww_devpor $end
$var wire 1 ] ww_HEX0a $end
$var wire 1 ^ ww_Preset $end
$var wire 1 _ ww_A0 $end
$var wire 1 ` ww_A1 $end
$var wire 1 a ww_A2 $end
$var wire 1 b ww_A3 $end
$var wire 1 c ww_Clock $end
$var wire 1 d ww_Clear $end
$var wire 1 e ww_HEX0b $end
$var wire 1 f ww_HEX0c $end
$var wire 1 g ww_HEX0d $end
$var wire 1 h ww_HEX0e $end
$var wire 1 i ww_HEX0f $end
$var wire 1 j ww_HEX0g $end
$var wire 1 k ww_HEX1a $end
$var wire 1 l ww_HEX1b $end
$var wire 1 m ww_HEX1c $end
$var wire 1 n ww_HEX1d $end
$var wire 1 o ww_HEX1e $end
$var wire 1 p ww_HEX1f $end
$var wire 1 q ww_HEX1g $end
$var wire 1 r ww_HEX2a $end
$var wire 1 s ww_HEX2b $end
$var wire 1 t ww_HEX2c $end
$var wire 1 u ww_HEX2d $end
$var wire 1 v ww_HEX2e $end
$var wire 1 w ww_HEX2f $end
$var wire 1 x ww_HEX2g $end
$var wire 1 y ww_HEX3a $end
$var wire 1 z ww_HEX3b $end
$var wire 1 { ww_HEX3c $end
$var wire 1 | ww_HEX3d $end
$var wire 1 } ww_HEX3e $end
$var wire 1 ~ ww_HEX3f $end
$var wire 1 !! ww_HEX3g $end
$var wire 1 "! ww_HEX4a $end
$var wire 1 #! ww_Botao $end
$var wire 1 $! ww_Controlador $end
$var wire 1 %! ww_HEX4b $end
$var wire 1 &! ww_HEX4c $end
$var wire 1 '! ww_HEX4d $end
$var wire 1 (! ww_HEX4e $end
$var wire 1 )! ww_HEX4f $end
$var wire 1 *! ww_HEX4g $end
$var wire 1 +! ww_HEX5a $end
$var wire 1 ,! ww_HEX5b $end
$var wire 1 -! ww_HEX5c $end
$var wire 1 .! ww_HEX5d $end
$var wire 1 /! ww_HEX5e $end
$var wire 1 0! ww_HEX5f $end
$var wire 1 1! ww_HEX5g $end
$var wire 1 2! \~QUARTUS_CREATED_ADC1~_CHSEL_bus\ [4] $end
$var wire 1 3! \~QUARTUS_CREATED_ADC1~_CHSEL_bus\ [3] $end
$var wire 1 4! \~QUARTUS_CREATED_ADC1~_CHSEL_bus\ [2] $end
$var wire 1 5! \~QUARTUS_CREATED_ADC1~_CHSEL_bus\ [1] $end
$var wire 1 6! \~QUARTUS_CREATED_ADC1~_CHSEL_bus\ [0] $end
$var wire 1 7! \~QUARTUS_CREATED_ADC2~_CHSEL_bus\ [4] $end
$var wire 1 8! \~QUARTUS_CREATED_ADC2~_CHSEL_bus\ [3] $end
$var wire 1 9! \~QUARTUS_CREATED_ADC2~_CHSEL_bus\ [2] $end
$var wire 1 :! \~QUARTUS_CREATED_ADC2~_CHSEL_bus\ [1] $end
$var wire 1 ;! \~QUARTUS_CREATED_ADC2~_CHSEL_bus\ [0] $end
$var wire 1 <! \inst34|inst~0clkctrl_INCLK_bus\ [3] $end
$var wire 1 =! \inst34|inst~0clkctrl_INCLK_bus\ [2] $end
$var wire 1 >! \inst34|inst~0clkctrl_INCLK_bus\ [1] $end
$var wire 1 ?! \inst34|inst~0clkctrl_INCLK_bus\ [0] $end
$var wire 1 @! \~QUARTUS_CREATED_GND~I_combout\ $end
$var wire 1 A! \~QUARTUS_CREATED_UNVM~~busy\ $end
$var wire 1 B! \~QUARTUS_CREATED_ADC1~~eoc\ $end
$var wire 1 C! \~QUARTUS_CREATED_ADC2~~eoc\ $end
$var wire 1 D! \HEX0a~output_o\ $end
$var wire 1 E! \HEX0b~output_o\ $end
$var wire 1 F! \HEX0c~output_o\ $end
$var wire 1 G! \HEX0d~output_o\ $end
$var wire 1 H! \HEX0e~output_o\ $end
$var wire 1 I! \HEX0f~output_o\ $end
$var wire 1 J! \HEX0g~output_o\ $end
$var wire 1 K! \HEX1a~output_o\ $end
$var wire 1 L! \HEX1b~output_o\ $end
$var wire 1 M! \HEX1c~output_o\ $end
$var wire 1 N! \HEX1d~output_o\ $end
$var wire 1 O! \HEX1e~output_o\ $end
$var wire 1 P! \HEX1f~output_o\ $end
$var wire 1 Q! \HEX1g~output_o\ $end
$var wire 1 R! \HEX2a~output_o\ $end
$var wire 1 S! \HEX2b~output_o\ $end
$var wire 1 T! \HEX2c~output_o\ $end
$var wire 1 U! \HEX2d~output_o\ $end
$var wire 1 V! \HEX2e~output_o\ $end
$var wire 1 W! \HEX2f~output_o\ $end
$var wire 1 X! \HEX2g~output_o\ $end
$var wire 1 Y! \HEX3a~output_o\ $end
$var wire 1 Z! \HEX3b~output_o\ $end
$var wire 1 [! \HEX3c~output_o\ $end
$var wire 1 \! \HEX3d~output_o\ $end
$var wire 1 ]! \HEX3e~output_o\ $end
$var wire 1 ^! \HEX3f~output_o\ $end
$var wire 1 _! \HEX3g~output_o\ $end
$var wire 1 `! \HEX4a~output_o\ $end
$var wire 1 a! \HEX4b~output_o\ $end
$var wire 1 b! \HEX4c~output_o\ $end
$var wire 1 c! \HEX4d~output_o\ $end
$var wire 1 d! \HEX4e~output_o\ $end
$var wire 1 e! \HEX4f~output_o\ $end
$var wire 1 f! \HEX4g~output_o\ $end
$var wire 1 g! \HEX5a~output_o\ $end
$var wire 1 h! \HEX5b~output_o\ $end
$var wire 1 i! \HEX5c~output_o\ $end
$var wire 1 j! \HEX5d~output_o\ $end
$var wire 1 k! \HEX5e~output_o\ $end
$var wire 1 l! \HEX5f~output_o\ $end
$var wire 1 m! \HEX5g~output_o\ $end
$var wire 1 n! \Clear~input_o\ $end
$var wire 1 o! \Preset~input_o\ $end
$var wire 1 p! \inst34|inst~1_combout\ $end
$var wire 1 q! \Clock~input_o\ $end
$var wire 1 r! \A1~input_o\ $end
$var wire 1 s! \inst34|inst1~1_combout\ $end
$var wire 1 t! \inst34|inst~0_combout\ $end
$var wire 1 u! \inst34|inst~0clkctrl_outclk\ $end
$var wire 1 v! \inst34|inst1~_emulated_q\ $end
$var wire 1 w! \inst34|inst1~0_combout\ $end
$var wire 1 x! \A3~input_o\ $end
$var wire 1 y! \inst34|inst3~1_combout\ $end
$var wire 1 z! \inst34|inst3~_emulated_q\ $end
$var wire 1 {! \inst34|inst3~0_combout\ $end
$var wire 1 |! \A2~input_o\ $end
$var wire 1 }! \inst34|inst2~1_combout\ $end
$var wire 1 ~! \inst34|inst2~_emulated_q\ $end
$var wire 1 !" \inst34|inst2~0_combout\ $end
$var wire 1 "" \A0~input_o\ $end
$var wire 1 #" \inst34|inst~3_combout\ $end
$var wire 1 $" \inst34|inst~_emulated_q\ $end
$var wire 1 %" \inst34|inst~2_combout\ $end
$var wire 1 &" \inst6|h0~0_combout\ $end
$var wire 1 '" \inst6|h1~0_combout\ $end
$var wire 1 (" \inst6|h2~0_combout\ $end
$var wire 1 )" \inst6|h3~0_combout\ $end
$var wire 1 *" \inst6|h4~0_combout\ $end
$var wire 1 +" \inst6|h5~0_combout\ $end
$var wire 1 ," \inst6|h6~0_combout\ $end
$var wire 1 -" \inst|inst~1_combout\ $end
$var wire 1 ." \inst|inst~_emulated_q\ $end
$var wire 1 /" \inst|inst~0_combout\ $end
$var wire 1 0" \inst|inst2~1_combout\ $end
$var wire 1 1" \inst|inst2~_emulated_q\ $end
$var wire 1 2" \inst|inst2~0_combout\ $end
$var wire 1 3" \inst|inst3~1_combout\ $end
$var wire 1 4" \inst|inst3~_emulated_q\ $end
$var wire 1 5" \inst|inst3~0_combout\ $end
$var wire 1 6" \inst|inst1~1_combout\ $end
$var wire 1 7" \inst|inst1~_emulated_q\ $end
$var wire 1 8" \inst|inst1~0_combout\ $end
$var wire 1 9" \inst7|h0~0_combout\ $end
$var wire 1 :" \inst7|h1~0_combout\ $end
$var wire 1 ;" \inst7|h2~0_combout\ $end
$var wire 1 <" \inst7|h3~0_combout\ $end
$var wire 1 =" \inst7|h4~0_combout\ $end
$var wire 1 >" \inst7|h5~0_combout\ $end
$var wire 1 ?" \inst7|h6~0_combout\ $end
$var wire 1 @" \inst1|inst3~1_combout\ $end
$var wire 1 A" \inst1|inst3~_emulated_q\ $end
$var wire 1 B" \inst1|inst3~0_combout\ $end
$var wire 1 C" \inst1|inst1~1_combout\ $end
$var wire 1 D" \inst1|inst1~_emulated_q\ $end
$var wire 1 E" \inst1|inst1~0_combout\ $end
$var wire 1 F" \inst1|inst2~1_combout\ $end
$var wire 1 G" \inst1|inst2~_emulated_q\ $end
$var wire 1 H" \inst1|inst2~0_combout\ $end
$var wire 1 I" \inst1|inst~1_combout\ $end
$var wire 1 J" \inst1|inst~_emulated_q\ $end
$var wire 1 K" \inst1|inst~0_combout\ $end
$var wire 1 L" \inst9|h0~0_combout\ $end
$var wire 1 M" \inst9|h1~0_combout\ $end
$var wire 1 N" \inst9|h2~0_combout\ $end
$var wire 1 O" \inst9|h3~0_combout\ $end
$var wire 1 P" \inst9|h4~0_combout\ $end
$var wire 1 Q" \inst9|h5~0_combout\ $end
$var wire 1 R" \inst9|h6~0_combout\ $end
$var wire 1 S" \inst2|inst3~1_combout\ $end
$var wire 1 T" \inst2|inst3~_emulated_q\ $end
$var wire 1 U" \inst2|inst3~0_combout\ $end
$var wire 1 V" \inst2|inst2~1_combout\ $end
$var wire 1 W" \inst2|inst2~_emulated_q\ $end
$var wire 1 X" \inst2|inst2~0_combout\ $end
$var wire 1 Y" \inst2|inst~1_combout\ $end
$var wire 1 Z" \inst2|inst~_emulated_q\ $end
$var wire 1 [" \inst2|inst~0_combout\ $end
$var wire 1 \" \inst2|inst1~1_combout\ $end
$var wire 1 ]" \inst2|inst1~_emulated_q\ $end
$var wire 1 ^" \inst2|inst1~0_combout\ $end
$var wire 1 _" \inst8|h0~0_combout\ $end
$var wire 1 `" \inst8|h1~0_combout\ $end
$var wire 1 a" \inst8|h2~0_combout\ $end
$var wire 1 b" \inst8|h3~0_combout\ $end
$var wire 1 c" \inst8|h4~0_combout\ $end
$var wire 1 d" \inst8|h5~0_combout\ $end
$var wire 1 e" \inst8|h6~0_combout\ $end
$var wire 1 f" \Botao~input_o\ $end
$var wire 1 g" \inst3|inst~1_combout\ $end
$var wire 1 h" \inst3|inst~_emulated_q\ $end
$var wire 1 i" \inst3|inst~0_combout\ $end
$var wire 1 j" \inst3|inst1~3_combout\ $end
$var wire 1 k" \inst3|inst1~_emulated_q\ $end
$var wire 1 l" \inst3|inst1~0_combout\ $end
$var wire 1 m" \inst10|h0~0_combout\ $end
$var wire 1 n" \inst4|inst~6_combout\ $end
$var wire 1 o" \Controlador~input_o\ $end
$var wire 1 p" \inst4|inst~7_combout\ $end
$var wire 1 q" \inst4|inst~8_combout\ $end
$var wire 1 r" \inst4|inst~3_combout\ $end
$var wire 1 s" \inst4|inst~4_combout\ $end
$var wire 1 t" \inst4|inst~5_combout\ $end
$var wire 1 u" \inst4|inst~1_combout\ $end
$var wire 1 v" \inst4|inst~_emulated_q\ $end
$var wire 1 w" \inst4|inst~0_combout\ $end
$var wire 1 x" \inst11|h0~0_combout\ $end
$var wire 1 y" \inst34|ALT_INV_inst~0clkctrl_outclk\ $end
$var wire 1 z" \inst3|ALT_INV_inst1~0_combout\ $end
$upscope $end
$upscope $end
$enddefinitions $end
#0
$dumpvars
0!
0"
0#
0$
1%
0&
0'
1(
0)
0*
0+
0,
0-
0.
1/
00
01
02
03
04
05
16
07
08
09
0:
0;
0<
1=
0>
0?
0@
0A
0B
0C
1D
0E
0F
0G
0H
0I
0J
1K
0L
0M
0N
0O
0P
0Q
1R
1S
0T
1U
xV
1W
1X
1Y
1Z
1[
1\
0]
1^
0_
0`
0a
0b
0c
0d
0e
0f
0g
0h
0i
1j
0k
0l
0m
0n
0o
0p
1q
0r
0s
0t
0u
0v
0w
1x
0y
0z
0{
0|
0}
0~
1!!
0"!
1#!
1$!
0%!
0&!
0'!
0(!
0)!
1*!
0+!
0,!
0-!
0.!
0/!
00!
11!
0@!
zA!
zB!
zC!
0D!
0E!
0F!
0G!
0H!
0I!
1J!
0K!
0L!
0M!
0N!
0O!
0P!
1Q!
0R!
0S!
0T!
0U!
0V!
0W!
1X!
0Y!
0Z!
0[!
0\!
0]!
0^!
1_!
0`!
0a!
0b!
0c!
0d!
0e!
1f!
0g!
0h!
0i!
0j!
0k!
0l!
1m!
0n!
1o!
0p!
0q!
0r!
0s!
1t!
1u!
0v!
0w!
0x!
0y!
0z!
0{!
0|!
0}!
0~!
0!"
0""
0#"
0$"
0%"
0&"
0'"
0("
0)"
0*"
0+"
1,"
0-"
0."
0/"
00"
01"
02"
03"
04"
05"
06"
07"
08"
09"
0:"
0;"
0<"
0="
0>"
1?"
0@"
0A"
0B"
0C"
0D"
0E"
0F"
0G"
0H"
0I"
0J"
0K"
0L"
0M"
0N"
0O"
0P"
0Q"
1R"
0S"
0T"
0U"
0V"
0W"
0X"
0Y"
0Z"
0["
0\"
0]"
0^"
0_"
0`"
0a"
0b"
0c"
0d"
1e"
1f"
0g"
0h"
0i"
1j"
0k"
0l"
0m"
1n"
1o"
0p"
0q"
0r"
0s"
0t"
1u"
0v"
0w"
0x"
0y"
1z"
1<!
1=!
1>!
1?!
02!
03!
04!
05!
06!
07!
08!
09!
0:!
0;!
$end
#10000
1!
1_
1""
1#"
#20000
0!
1"
0_
1`
1r!
0""
0#"
1s!
#30000
1!
1_
1""
1#"
#40000
0!
0"
1#
0_
0`
1a
1|!
0r!
0""
0#"
0s!
1}!
#50000
1!
1_
1""
1#"
#60000
0!
1"
0_
1`
1r!
0""
0#"
1s!
#70000
1!
1_
1""
1#"
#80000
0!
0"
0#
1$
0_
0`
0a
1b
1x!
0|!
0r!
0""
0#"
0s!
0}!
1y!
#90000
1!
1_
1""
1#"
#100000
0!
1"
1'
0_
1`
1c
1q!
1r!
0""
0#"
1s!
#110000
1!
1_
1""
1#"
#120000
0!
0"
1#
0_
0`
1a
1|!
0r!
0""
0#"
0s!
1}!
#130000
1!
1_
1""
1#"
#140000
0!
1"
0_
1`
1r!
0""
0#"
1s!
#150000
1!
1_
1""
1#"
#160000
0!
0"
0#
0$
0_
0`
0a
0b
0x!
0|!
0r!
0""
0#"
0s!
0}!
0y!
#170000
1!
1_
1""
1#"
#180000
0!
1"
0_
1`
1r!
0""
0#"
1s!
#190000
1!
1_
1""
1#"
#200000
0!
0"
1#
0'
0_
0`
1a
0c
0q!
1|!
0r!
0""
0#"
0s!
1}!
#210000
1!
1_
1""
1#"
#220000
0!
1"
0_
1`
1r!
0""
0#"
1s!
#230000
1!
1_
1""
1#"
#240000
0!
0"
0#
1$
0_
0`
0a
1b
1x!
0|!
0r!
0""
0#"
0s!
0}!
1y!
#250000
1!
1_
1""
1#"
#260000
0!
1"
0_
1`
1r!
0""
0#"
1s!
#270000
1!
1_
1""
1#"
#280000
0!
0"
1#
0_
0`
1a
1|!
0r!
0""
0#"
0s!
1}!
#290000
1!
1_
1""
1#"
#300000
0!
1"
1'
0_
1`
1c
1q!
1r!
0""
0#"
1s!
#310000
1!
1_
1""
1#"
#320000
0!
0"
0#
0$
0_
0`
0a
0b
0x!
0|!
0r!
0""
0#"
0s!
0}!
0y!
#330000
1!
1_
1""
1#"
#340000
0!
1"
0_
1`
1r!
0""
0#"
1s!
#350000
1!
1_
1""
1#"
#360000
0!
0"
1#
0_
0`
1a
1|!
0r!
0""
0#"
0s!
1}!
#370000
1!
1_
1""
1#"
#380000
0!
1"
0_
1`
1r!
0""
0#"
1s!
#390000
1!
1_
1""
1#"
#400000
0!
0"
0#
1$
0'
0_
0`
0a
1b
0c
0q!
1x!
0|!
0r!
0""
0#"
0s!
0}!
1y!
#410000
1!
1_
1""
1#"
#420000
0!
1"
0_
1`
1r!
0""
0#"
1s!
#430000
1!
1_
1""
1#"
#440000
0!
0"
1#
0_
0`
1a
1|!
0r!
0""
0#"
0s!
1}!
#450000
1!
1_
1""
1#"
#460000
0!
1"
0_
1`
1r!
0""
0#"
1s!
#470000
1!
1_
1""
1#"
#480000
0!
0"
0#
0$
0_
0`
0a
0b
0x!
0|!
0r!
0""
0#"
0s!
0}!
0y!
#490000
1!
1_
1""
1#"
#500000
0!
1"
1'
0_
1`
1c
1q!
1r!
0""
0#"
1s!
#510000
1!
1_
1""
1#"
#520000
0!
0"
1#
0_
0`
1a
1|!
0r!
0""
0#"
0s!
1}!
#530000
1!
1_
1""
1#"
#540000
0!
1"
0_
1`
1r!
0""
0#"
1s!
#550000
1!
1_
1""
1#"
#560000
0!
0"
0#
1$
0_
0`
0a
1b
1x!
0|!
0r!
0""
0#"
0s!
0}!
1y!
#570000
1!
1_
1""
1#"
#580000
0!
1"
0_
1`
1r!
0""
0#"
1s!
#590000
1!
1_
1""
1#"
#600000
0!
0"
1#
0'
0_
0`
1a
0c
0q!
1|!
0r!
0""
0#"
0s!
1}!
#610000
1!
1_
1""
1#"
#620000
0!
1"
0_
1`
1r!
0""
0#"
1s!
#630000
1!
1_
1""
1#"
#640000
0!
0"
0#
0$
1&
0_
0`
0a
0b
1d
1n!
0x!
0|!
0r!
0""
0#"
0s!
0}!
0y!
0t!
0?!
0u!
1y"
#650000
1!
1_
1""
1#"
#660000
0!
1"
0_
1`
1r!
0""
0#"
1s!
#670000
1!
1_
1""
1#"
#680000
0!
0"
1#
0_
0`
1a
1|!
0r!
0""
0#"
0s!
1}!
#690000
1!
1_
1""
1#"
#700000
0!
1"
1'
0_
1`
1c
1q!
1r!
0""
0#"
1s!
1~!
1$"
1k"
1v"
1w"
1l"
1%"
1!"
0z"
1a!
1b!
1h!
1i!
1j!
10"
1'"
1*"
0,"
1-"
1g"
0f!
0m!
1%!
1&!
1,!
1-!
1.!
0J!
1H!
1E!
0*!
01!
1F
1G
1M
1N
1O
0j
1h
1e
0K
0R
0/
1-
1*
#710000
1!
1_
1""
1#"
#720000
0!
0"
0#
1$
0_
0`
0a
1b
1x!
0|!
0r!
0""
0#"
0s!
0}!
1y!
#730000
1!
1_
1""
1#"
#740000
0!
1"
0_
1`
1r!
0""
0#"
1s!
#750000
1!
1_
1""
1#"
#760000
0!
0"
1#
0_
0`
1a
1|!
0r!
0""
0#"
0s!
1}!
#770000
1!
1_
1""
1#"
#780000
0!
1"
0_
1`
1r!
0""
0#"
1s!
#790000
1!
1_
1""
1#"
#800000
0!
0"
0#
0$
0'
0_
0`
0a
0b
0c
0q!
0x!
0|!
0r!
0""
0#"
0s!
0}!
0y!
#810000
1!
1_
1""
1#"
#820000
0!
1"
0_
1`
1r!
0""
0#"
1s!
#830000
1!
1_
1""
1#"
#840000
0!
0"
1#
0_
0`
1a
1|!
0r!
0""
0#"
0s!
1}!
#850000
1!
1_
1""
1#"
#860000
0!
1"
0_
1`
1r!
0""
0#"
1s!
#870000
1!
1_
1""
1#"
#880000
0!
0"
0#
1$
0_
0`
0a
1b
1x!
0|!
0r!
0""
0#"
0s!
0}!
1y!
#890000
1!
1_
1""
1#"
#900000
0!
1"
1'
0_
1`
1c
1q!
1r!
0""
0#"
1s!
1z!
0~!
1."
11"
1h"
1i"
12"
1/"
0!"
1{!
1c!
13"
1p"
0'"
00"
1I"
0g"
1:"
1="
0?"
1F"
1s"
1'!
0Q!
1O!
1L!
0E!
1H
0q
1o
1l
0e
06
14
11
0*
#910000
1!
1_
1""
1#"
#920000
0!
0"
1#
0_
0`
1a
1|!
0r!
0""
0#"
0s!
1}!
#930000
1!
1_
1""
1#"
#940000
0!
1"
0_
1`
1r!
0""
0#"
1s!
#950000
1!
1_
1""
1#"
#960000
0!
0"
0#
0$
0_
0`
0a
0b
0x!
0|!
0r!
0""
0#"
0s!
0}!
0y!
#970000
1!
1_
1""
1#"
#980000
0!
1"
0_
1`
1r!
0""
0#"
1s!
#990000
1!
1_
1""
1#"
#1000000
0!
0"
1#
0'
0_
0`
1a
0c
0q!
1|!
0r!
0""
0#"
0s!
1}!
#1010000
1!
1_
1""
1#"
#1020000
0!
1"
0_
1`
1r!
0""
0#"
1s!
#1030000
1!
1_
1""
1#"
#1040000
0!
0"
0#
1$
0_
0`
0a
1b
1x!
0|!
0r!
0""
0#"
0s!
0}!
1y!
#1050000
1!
1_
1""
1#"
#1060000
0!
1"
0_
1`
1r!
0""
0#"
1s!
#1070000
1!
1_
1""
1#"
#1080000
0!
0"
1#
0_
0`
1a
1|!
0r!
0""
0#"
0s!
1}!
#1090000
1!
1_
1""
1#"
#1100000
0!
1"
1'
0_
1`
1c
1q!
1r!
0""
0#"
1s!
1~!
01"
14"
1G"
1J"
0h"
0i"
1K"
1H"
15"
02"
1!"
0c!
1&"
0*"
1+"
10"
0F"
0s"
0:"
1@"
0p"
1t"
1V"
1M"
1P"
0R"
1Y"
0'!
0X!
1V!
1S!
0L!
1I!
0H!
1D!
0u"
0t"
0H
0x
1v
1s
0l
1i
0h
1]
1u"
0=
1;
18
01
1.
0-
1)
#1110000
1!
1_
1""
1#"
#1120000
0!
0"
0#
0$
0_
0`
0a
0b
0x!
0|!
0r!
0""
0#"
0s!
0}!
0y!
#1130000
1!
1_
1""
1#"
#1140000
0!
1"
0_
1`
1r!
0""
0#"
1s!
#1150000
1!
1_
1""
1#"
#1160000
0!
0"
1#
0_
0`
1a
1|!
0r!
0""
0#"
0s!
1}!
#1170000
1!
1_
1""
1#"
#1180000
0!
1"
0_
1`
1r!
0""
0#"
1s!
#1190000
1!
1_
1""
1#"
#1200000
0!
0"
0#
1$
0'
0_
0`
0a
1b
0c
0q!
1x!
0|!
0r!
0""
0#"
0s!
0}!
1y!
#1210000
1!
1_
1""
1#"
#1220000
0!
1"
0_
1`
1r!
0""
0#"
1s!
#1230000
1!
1_
1""
1#"
#1240000
0!
0"
1#
0_
0`
1a
1|!
0r!
0""
0#"
0s!
1}!
#1250000
1!
1_
1""
1#"
#1260000
0!
1"
0_
1`
1r!
0""
0#"
1s!
#1270000
1!
1_
1""
1#"
#1280000
0!
0"
0#
0$
0_
0`
0a
0b
0x!
0|!
0r!
0""
0#"
0s!
0}!
0y!
#1290000
1!
1_
1""
1#"
#1300000
0!
1"
1'
0_
1`
1c
1q!
1r!
0""
0#"
1s!
0z!
0~!
11"
1A"
0G"
1W"
1Z"
1["
1X"
0H"
1B"
12"
0!"
0{!
03"
1t"
1)"
1*"
1,"
00"
19"
0="
1>"
1F"
1s"
1S"
0M"
0V"
1`"
1c"
0e"
0_!
1]!
1Z!
0S!
1P!
0O!
1K!
1J!
1H!
1G!
0u"
0!!
1}
1z
0s
1p
0o
1k
1j
1h
1g
0D
1B
1?
08
15
04
10
1/
1-
1,
#1310000
1!
1_
1""
1#"
#1320000
0!
0"
1#
0_
0`
1a
1|!
0r!
0""
0#"
0s!
1}!
#1330000
1!
1_
1""
1#"
#1340000
0!
1"
0_
1`
1r!
0""
0#"
1s!
#1350000
1!
1_
1""
1#"
#1360000
0!
0"
0#
1$
0_
0`
0a
1b
1x!
0|!
0r!
0""
0#"
0s!
0}!
1y!
#1370000
1!
1_
1""
1#"
#1380000
0!
1"
0_
1`
1r!
0""
0#"
1s!
#1390000
1!
1_
1""
1#"
#1400000
0!
0"
1#
0'
0_
0`
1a
0c
0q!
1|!
0r!
0""
0#"
0s!
1}!
#1410000
1!
1_
1""
1#"
#1420000
0!
1"
0_
1`
1r!
0""
0#"
1s!
#1430000
1!
1_
1""
1#"
#1440000
0!
0"
0#
0$
0_
0`
0a
0b
0x!
0|!
0r!
0""
0#"
0s!
0}!
0y!
#1450000
1!
1_
1""
1#"
#1460000
0!
1"
0_
1`
1r!
0""
0#"
1s!
#1470000
1!
1_
1""
1#"
#1480000
0!
0"
1#
0_
0`
1a
1|!
0r!
0""
0#"
0s!
1}!
#1490000
1!
1_
1""
1#"
#1500000
0!
1"
1'
0_
1`
1c
1q!
1r!
0""
0#"
1s!
1~!
01"
04"
1G"
1T"
0W"
0v"
0w"
0X"
1U"
1H"
05"
02"
1!"
0j!
0&"
1'"
0)"
0+"
0,"
10"
0F"
0s"
1<"
1="
1?"
0@"
1L"
0P"
1Q"
1V"
0`"
0.!
0Z!
1W!
0V!
1R!
1Q!
1O!
1N!
0J!
0I!
0G!
1E!
0D!
0t"
0O
0z
1w
0v
1r
1q
1o
1n
0j
0i
0g
1e
0]
1u"
0?
1<
0;
17
16
14
13
0/
0.
0,
1*
0)
#1510000
1!
1_
1""
1#"
#1520000
0!
0"
0#
1$
0_
0`
0a
1b
1x!
0|!
0r!
0""
0#"
0s!
0}!
1y!
#1530000
1!
1_
1""
1#"
#1540000
0!
1"
0_
1`
1r!
0""
0#"
1s!
#1550000
1!
1_
1""
1#"
#1560000
0!
0"
1#
0_
0`
1a
1|!
0r!
0""
0#"
0s!
1}!
#1570000
1!
1_
1""
1#"
#1580000
0!
1"
0_
1`
1r!
0""
0#"
1s!
#1590000
1!
1_
1""
1#"
#1600000
0!
0"
0#
0$
0'
0_
0`
0a
0b
0c
0q!
0x!
0|!
0r!
0""
0#"
0s!
0}!
0y!
#1610000
1!
1_
1""
1#"
#1620000
0!
1"
0_
1`
1r!
0""
0#"
1s!
#1630000
1!
1_
1""
1#"
#1640000
0!
0"
1#
0_
0`
1a
1|!
0r!
0""
0#"
0s!
1}!
#1650000
1!
1_
1""
1#"
#1660000
0!
1"
0_
1`
1r!
0""
0#"
1s!
#1670000
1!
1_
1""
1#"
#1680000
0!
0"
0#
1$
0_
0`
0a
1b
1x!
0|!
0r!
0""
0#"
0s!
0}!
1y!
#1690000
1!
1_
1""
1#"
#1700000
0!
1"
1'
0_
1`
1c
1q!
1r!
0""
0#"
1s!
1z!
0~!
11"
0A"
0G"
1W"
1v"
1w"
1X"
0H"
0B"
12"
0!"
1{!
1j!
13"
1p"
0'"
00"
09"
1:"
0<"
0>"
0?"
1F"
1s"
0S"
1O"
1P"
1R"
0V"
1_"
0c"
1d"
1.!
1^!
0]!
1Y!
1X!
1V!
1U!
0Q!
0P!
0N!
1L!
0K!
0E!
1O
1~
0}
1y
1x
1v
1u
0q
0p
0n
1l
0k
0e
1C
0B
1>
1=
1;
1:
06
05
03
11
00
0*
#1710000
1!
1_
1""
1#"
#1720000
0!
0"
1#
0_
0`
1a
1|!
0r!
0""
0#"
0s!
1}!
#1730000
1!
1_
1""
1#"
#1740000
0!
1"
0_
1`
1r!
0""
0#"
1s!
#1750000
1!
1_
1""
1#"
#1760000
0!
0"
0#
0$
0_
0`
0a
0b
0x!
0|!
0r!
0""
0#"
0s!
0}!
0y!
#1770000
1!
1_
1""
1#"
#1780000
0!
1"
0_
1`
1r!
0""
0#"
1s!
#1790000
1!
1_
1""
1#"
#1800000
0!
0"
1#
0'
0_
0`
1a
0c
0q!
1|!
0r!
0""
0#"
0s!
1}!
#1810000
1!
1_
1""
1#"
#1820000
0!
1"
0_
1`
1r!
0""
0#"
1s!
#1830000
1!
1_
1""
1#"
#1840000
0!
0"
0#
1$
0_
0`
0a
1b
1x!
0|!
0r!
0""
0#"
0s!
0}!
1y!
#1850000
1!
1_
1""
1#"
#1860000
0!
1"
0_
1`
1r!
0""
0#"
1s!
#1870000
1!
1_
1""
1#"
#1880000
0!
0"
1#
0_
0`
1a
1|!
0r!
0""
0#"
0s!
1}!
#1890000
1!
1_
1""
1#"
