SomadorSubtrator4Bits/simulation/qsim/SomadorSubtrator.msim.vcd
$comment
	File created using the following command:
		vcd file SomadorSubtrator.msim.vcd -direction
$end
$date
	Fri Sep  2 08:56:10 2022
$end
$version
	ModelSim Version 10.5b
$end
$timescale
	1ps
$end

$scope module somadorsubtrator_vhd_vec_tst $end
$var wire 1 ! A0 $end
$var wire 1 " A1 $end
$var wire 1 # A2 $end
$var wire 1 $ A3 $end
$var wire 1 % B0 $end
$var wire 1 & B1 $end
$var wire 1 ' B2 $end
$var wire 1 ( B3 $end
$var wire 1 ) Controlador $end
$var wire 1 * COUT $end
$var wire 1 + h0a $end
$var wire 1 , h0b $end
$var wire 1 - h0c $end
$var wire 1 . h0d $end
$var wire 1 / h0e $end
$var wire 1 0 h0f $end
$var wire 1 1 h0g $end
$var wire 1 2 h2a $end
$var wire 1 3 h2b $end
$var wire 1 4 h2c $end
$var wire 1 5 h2d $end
$var wire 1 6 h2e $end
$var wire 1 7 h2f $end
$var wire 1 8 h2g $end
$var wire 1 9 h4a $end
$var wire 1 : h4b $end
$var wire 1 ; h4c $end
$var wire 1 < h4d $end
$var wire 1 = h4e $end
$var wire 1 > h4f $end
$var wire 1 ? h4g $end
$var wire 1 @ h5a $end
$var wire 1 A h5b $end
$var wire 1 B h5c $end
$var wire 1 C h5d $end
$var wire 1 D h5e $end
$var wire 1 E h5f $end
$var wire 1 F h5g $end
$var wire 1 G S0 $end
$var wire 1 H S1 $end
$var wire 1 I S2 $end
$var wire 1 J S3 $end

$scope module i1 $end
$var wire 1 K gnd $end
$var wire 1 L vcc $end
$var wire 1 M unknown $end
$var wire 1 N devoe $end
$var wire 1 O devclrn $end
$var wire 1 P devpor $end
$var wire 1 Q ww_devoe $end
$var wire 1 R ww_devclrn $end
$var wire 1 S ww_devpor $end
$var wire 1 T ww_S0 $end
$var wire 1 U ww_A0 $end
$var wire 1 V ww_Controlador $end
$var wire 1 W ww_B0 $end
$var wire 1 X ww_S1 $end
$var wire 1 Y ww_A1 $end
$var wire 1 Z ww_B1 $end
$var wire 1 [ ww_S2 $end
$var wire 1 \ ww_A2 $end
$var wire 1 ] ww_B2 $end
$var wire 1 ^ ww_S3 $end
$var wire 1 _ ww_A3 $end
$var wire 1 ` ww_B3 $end
$var wire 1 a ww_COUT $end
$var wire 1 b ww_h0a $end
$var wire 1 c ww_h0b $end
$var wire 1 d ww_h0c $end
$var wire 1 e ww_h0d $end
$var wire 1 f ww_h0e $end
$var wire 1 g ww_h0f $end
$var wire 1 h ww_h0g $end
$var wire 1 i ww_h2a $end
$var wire 1 j ww_h2b $end
$var wire 1 k ww_h2c $end
$var wire 1 l ww_h2d $end
$var wire 1 m ww_h2e $end
$var wire 1 n ww_h2f $end
$var wire 1 o ww_h2g $end
$var wire 1 p ww_h4a $end
$var wire 1 q ww_h4b $end
$var wire 1 r ww_h4c $end
$var wire 1 s ww_h4d $end
$var wire 1 t ww_h4e $end
$var wire 1 u ww_h4f $end
$var wire 1 v ww_h4g $end
$var wire 1 w ww_h5a $end
$var wire 1 x ww_h5b $end
$var wire 1 y ww_h5c $end
$var wire 1 z ww_h5d $end
$var wire 1 { ww_h5e $end
$var wire 1 | ww_h5f $end
$var wire 1 } ww_h5g $end
$var wire 1 ~ \~QUARTUS_CREATED_ADC1~_CHSEL_bus\ [4] $end
$var wire 1 !! \~QUARTUS_CREATED_ADC1~_CHSEL_bus\ [3] $end
$var wire 1 "! \~QUARTUS_CREATED_ADC1~_CHSEL_bus\ [2] $end
$var wire 1 #! \~QUARTUS_CREATED_ADC1~_CHSEL_bus\ [1] $end
$var wire 1 $! \~QUARTUS_CREATED_ADC1~_CHSEL_bus\ [0] $end
$var wire 1 %! \~QUARTUS_CREATED_ADC2~_CHSEL_bus\ [4] $end
$var wire 1 &! \~QUARTUS_CREATED_ADC2~_CHSEL_bus\ [3] $end
$var wire 1 '! \~QUARTUS_CREATED_ADC2~_CHSEL_bus\ [2] $end
$var wire 1 (! \~QUARTUS_CREATED_ADC2~_CHSEL_bus\ [1] $end
$var wire 1 )! \~QUARTUS_CREATED_ADC2~_CHSEL_bus\ [0] $end
$var wire 1 *! \~QUARTUS_CREATED_GND~I_combout\ $end
$var wire 1 +! \~QUARTUS_CREATED_UNVM~~busy\ $end
$var wire 1 ,! \~QUARTUS_CREATED_ADC1~~eoc\ $end
$var wire 1 -! \~QUARTUS_CREATED_ADC2~~eoc\ $end
$var wire 1 .! \S0~output_o\ $end
$var wire 1 /! \S1~output_o\ $end
$var wire 1 0! \S2~output_o\ $end
$var wire 1 1! \S3~output_o\ $end
$var wire 1 2! \COUT~output_o\ $end
$var wire 1 3! \h0a~output_o\ $end
$var wire 1 4! \h0b~output_o\ $end
$var wire 1 5! \h0c~output_o\ $end
$var wire 1 6! \h0d~output_o\ $end
$var wire 1 7! \h0e~output_o\ $end
$var wire 1 8! \h0f~output_o\ $end
$var wire 1 9! \h0g~output_o\ $end
$var wire 1 :! \h2a~output_o\ $end
$var wire 1 ;! \h2b~output_o\ $end
$var wire 1 <! \h2c~output_o\ $end
$var wire 1 =! \h2d~output_o\ $end
$var wire 1 >! \h2e~output_o\ $end
$var wire 1 ?! \h2f~output_o\ $end
$var wire 1 @! \h2g~output_o\ $end
$var wire 1 A! \h4a~output_o\ $end
$var wire 1 B! \h4b~output_o\ $end
$var wire 1 C! \h4c~output_o\ $end
$var wire 1 D! \h4d~output_o\ $end
$var wire 1 E! \h4e~output_o\ $end
$var wire 1 F! \h4f~output_o\ $end
$var wire 1 G! \h4g~output_o\ $end
$var wire 1 H! \h5a~output_o\ $end
$var wire 1 I! \h5b~output_o\ $end
$var wire 1 J! \h5c~output_o\ $end
$var wire 1 K! \h5d~output_o\ $end
$var wire 1 L! \h5e~output_o\ $end
$var wire 1 M! \h5f~output_o\ $end
$var wire 1 N! \h5g~output_o\ $end
$var wire 1 O! \A0~input_o\ $end
$var wire 1 P! \B0~input_o\ $end
$var wire 1 Q! \inst|inst5|4~0_combout\ $end
$var wire 1 R! \A1~input_o\ $end
$var wire 1 S! \Controlador~input_o\ $end
$var wire 1 T! \B1~input_o\ $end
$var wire 1 U! \inst5~combout\ $end
$var wire 1 V! \inst|inst|4~combout\ $end
$var wire 1 W! \inst|inst1|4~0_combout\ $end
$var wire 1 X! \inst2|inst5|4~combout\ $end
$var wire 1 Y! \B2~input_o\ $end
$var wire 1 Z! \A2~input_o\ $end
$var wire 1 [! \inst2|inst3|4~0_combout\ $end
$var wire 1 \! \inst1|inst5|4~0_combout\ $end
$var wire 1 ]! \A3~input_o\ $end
$var wire 1 ^! \inst1|inst3|4~0_combout\ $end
$var wire 1 _! \B3~input_o\ $end
$var wire 1 `! \inst3|inst5|4~0_combout\ $end
$var wire 1 a! \inst3|inst3|4~0_combout\ $end
$var wire 1 b! \inst8|h0~0_combout\ $end
$var wire 1 c! \inst8|h1~0_combout\ $end
$var wire 1 d! \inst8|h2~0_combout\ $end
$var wire 1 e! \inst8|h3~0_combout\ $end
$var wire 1 f! \inst8|h4~0_combout\ $end
$var wire 1 g! \inst8|h5~0_combout\ $end
$var wire 1 h! \inst8|h6~0_combout\ $end
$var wire 1 i! \inst9|h0~0_combout\ $end
$var wire 1 j! \inst9|h1~0_combout\ $end
$var wire 1 k! \inst9|h2~0_combout\ $end
$var wire 1 l! \inst9|h3~0_combout\ $end
$var wire 1 m! \inst9|h4~0_combout\ $end
$var wire 1 n! \inst9|h5~0_combout\ $end
$var wire 1 o! \inst9|h6~0_combout\ $end
$var wire 1 p! \inst10|h0~0_combout\ $end
$var wire 1 q! \inst10|h1~0_combout\ $end
$var wire 1 r! \inst10|h2~0_combout\ $end
$var wire 1 s! \inst10|h3~0_combout\ $end
$var wire 1 t! \inst10|h4~0_combout\ $end
$var wire 1 u! \inst10|h5~0_combout\ $end
$var wire 1 v! \inst10|h6~0_combout\ $end
$upscope $end
$upscope $end
$enddefinitions $end
#0
$dumpvars
0!
0"
0#
0$
0%
0&
0'
0(
1)
1*
0+
0,
0-
0.
0/
00
11
02
03
04
05
06
07
18
09
0:
0;
0<
0=
0>
1?
1@
0A
0B
1C
1D
1E
1F
0G
0H
0I
0J
0K
1L
xM
1N
1O
1P
1Q
1R
1S
0T
0U
1V
0W
0X
0Y
0Z
0[
0\
0]
0^
0_
0`
1a
0b
0c
0d
0e
0f
0g
1h
0i
0j
0k
0l
0m
0n
1o
0p
0q
0r
0s
0t
0u
1v
1w
0x
0y
1z
1{
1|
1}
0*!
z+!
z,!
z-!
0.!
0/!
00!
01!
12!
03!
04!
05!
06!
07!
08!
19!
0:!
0;!
0<!
0=!
0>!
0?!
1@!
0A!
0B!
0C!
0D!
0E!
0F!
1G!
1H!
0I!
0J!
1K!
1L!
1M!
1N!
0O!
0P!
0Q!
0R!
1S!
0T!
1U!
0V!
1W!
0X!
0Y!
0Z!
1[!
0\!
0]!
1^!
0_!
0`!
1a!
0b!
0c!
0d!
0e!
0f!
0g!
1h!
0i!
0j!
0k!
0l!
0m!
0n!
1o!
0p!
0q!
0r!
0s!
0t!
0u!
1v!
0~
0!!
0"!
0#!
0$!
0%!
0&!
0'!
0(!
0)!
$end
#10000
1!
1U
1O!
1Q!
1V!
1b!
1e!
1f!
1g!
18!
17!
16!
13!
1.!
1p!
1s!
1t!
1u!
1g
1f
1e
1b
1T
1F!
1E!
1D!
1A!
10
1/
1.
1+
1G
1u
1t
1s
1p
1>
1=
1<
19
#20000
0!
1"
0U
1Y
1R!
0O!
0Q!
0V!
1X!
0b!
1d!
0e!
0f!
0h!
09!
07!
06!
15!
03!
1/!
0.!
0p!
1r!
0s!
0t!
0v!
0h
0f
0e
1d
0b
1X
0T
0G!
0E!
0D!
1C!
0A!
01
0/
0.
1-
0+
1H
0G
0v
0t
0s
1r
0p
0?
0=
0<
1;
09
#30000
1!
1U
1O!
1Q!
1V!
0d!
1f!
17!
05!
1.!
0r!
1t!
1f
0d
1T
1E!
0C!
1/
0-
1G
1t
0r
1=
0;
#40000
0!
0"
1#
0U
0Y
1\
1Z!
0R!
0O!
0Q!
0V!
0X!
1\!
1b!
1e!
0g!
08!
16!
13!
10!
0/!
0.!
1p!
1s!
0u!
0g
1e
1b
1[
0X
0T
0F!
1D!
1A!
00
1.
1+
1I
0H
0G
0u
1s
1p
0>
1<
19
#50000
1!
1U
1O!
1Q!
1V!
0b!
1c!
0e!
06!
14!
03!
1.!
0p!
1q!
0s!
0e
1c
0b
1T
0D!
1B!
0A!
0.
1,
0+
1G
0s
1q
0p
0<
1:
09
#60000
0!
1"
0U
1Y
1R!
0O!
0Q!
0V!
1X!
0f!
07!
1/!
0.!
0t!
0f
1X
0T
0E!
0/
1H
0G
0t
0=
#70000
1!
1U
1O!
1Q!
1V!
0c!
1e!
1f!
1g!
1h!
19!
18!
17!
16!
04!
1.!
0q!
1s!
1t!
1u!
1v!
1h
1g
1f
1e
0c
1T
1G!
1F!
1E!
1D!
0B!
11
10
1/
1.
0,
1G
1v
1u
1t
1s
0q
1?
1>
1=
1<
0:
#80000
0!
0"
0#
1$
0U
0Y
0\
1_
1]!
0Z!
0R!
0O!
0Q!
0V!
0X!
0\!
1`!
0e!
0f!
0g!
0h!
09!
08!
07!
06!
11!
00!
0/!
0.!
0s!
0t!
0u!
0v!
0h
0g
0f
0e
1^
0[
0X
0T
0G!
0F!
0E!
0D!
01
00
0/
0.
1J
0I
0H
0G
0v
0u
0t
0s
0?
0>
0=
0<
#90000
1!
1U
1O!
1Q!
1V!
1f!
17!
1.!
1t!
1f
1T
1E!
1/
1G
1t
1=
#100000
0!
1"
0U
1Y
1R!
0O!
0Q!
0V!
1X!
1e!
0f!
07!
16!
1/!
0.!
1s!
0t!
0f
1e
1X
0T
0E!
1D!
0/
1.
1H
0G
0t
1s
0=
1<
#110000
1!
1U
1O!
1Q!
1V!
1b!
1c!
0e!
06!
14!
13!
1.!
1p!
1q!
0s!
0e
1c
1b
1T
0D!
1B!
1A!
0.
1,
1+
1G
0s
1q
1p
0<
1:
19
#120000
0!
0"
1#
0U
0Y
1\
1Z!
0R!
0O!
0Q!
0V!
0X!
1\!
0b!
1d!
1h!
19!
15!
03!
10!
0/!
0.!
0p!
1r!
1v!
1h
1d
0b
1[
0X
0T
1G!
1C!
0A!
11
1-
0+
1I
0H
0G
1v
1r
0p
1?
1;
09
#130000
1!
1U
1O!
1Q!
1V!
1b!
0c!
0d!
1g!
0h!
09!
18!
05!
04!
13!
1.!
1p!
0q!
0r!
1u!
0v!
0h
1g
0d
0c
1b
1T
0G!
1F!
0C!
0B!
1A!
01
10
0-
0,
1+
1G
0v
1u
0r
0q
1p
0?
1>
0;
0:
19
#140000
0!
1"
0U
1Y
1R!
0O!
0Q!
0V!
1X!
0b!
1c!
1d!
0g!
08!
15!
14!
03!
1/!
0.!
0p!
1q!
1r!
0u!
0g
1d
1c
0b
1X
0T
0F!
1C!
1B!
0A!
00
1-
1,
0+
1H
0G
0u
1r
1q
0p
0>
1;
1:
09
#150000
1!
1U
1O!
1Q!
1V!
1e!
16!
1.!
1s!
1e
1T
1D!
1.
1G
1s
1<
#160000
0!
0"
0#
0$
1%
0U
0Y
0\
0_
1W
1P!
0]!
0Z!
0R!
0O!
0X!
0\!
0`!
0c!
0d!
0e!
1h!
0V!
0W!
1i!
1l!
1m!
1n!
1?!
1>!
1=!
1:!
19!
06!
05!
04!
01!
00!
0/!
1X!
0[!
1p!
0q!
0r!
1t!
1u!
1v!
1n
1m
1l
1i
1h
0e
0d
0c
0^
0[
0X
1G!
1F!
1E!
0C!
0B!
1A!
1/!
1\!
0^!
0p!
0s!
0v!
17
16
15
12
11
0.
0-
0,
0J
0I
0H
1v
1u
1t
0r
0q
1p
1X
0G!
0D!
0A!
10!
1`!
0a!
1s!
1v!
1?
1>
1=
0;
0:
19
1H
0v
0s
0p
1[
1G!
1D!
02!
0H!
0K!
0L!
0M!
11!
1q!
1r!
0t!
0u!
0v!
0?
0<
09
1I
1v
1s
0a
0w
0z
0{
0|
1^
0G!
0F!
0E!
1C!
1B!
1?
1<
0*
0@
0C
0D
0E
1J
0v
0u
0t
1r
1q
0?
0>
0=
1;
1:
#170000
1!
1U
1O!
0Q!
1W!
1b!
1e!
1f!
1g!
18!
17!
16!
13!
0.!
0X!
1[!
0s!
1g
1f
1e
1b
0T
0D!
0/!
0\!
1^!
1v!
10
1/
1.
1+
0G
0s
0X
1G!
00!
0`!
1a!
0q!
0r!
0v!
0<
0H
1v
0[
0G!
0C!
0B!
12!
1H!
1K!
1L!
1M!
01!
1v!
1?
0I
0v
0r
0q
1a
1w
1z
1{
1|
0^
1G!
0?
0;
0:
1*
1@
1C
1D
1E
0J
1v
1?
#180000
0!
1"
0U
1Y
1R!
0O!
1Q!
0W!
1X!
0b!
1d!
0e!
0f!
0h!
09!
07!
06!
15!
03!
1/!
1.!
0X!
1t!
1u!
0v!
0h
0f
0e
1d
0b
1X
1T
0G!
1F!
1E!
0/!
1p!
1s!
1v!
01
0/
0.
1-
0+
1H
1G
0v
1u
1t
0X
1G!
1D!
1A!
0?
1>
1=
0H
1v
1s
1p
1?
1<
19
#190000
1!
1U
1O!
0Q!
1W!
0d!
1f!
17!
05!
0.!
1X!
0p!
0s!
0t!
0u!
1f
0d
0T
0F!
0E!
0D!
0A!
1/!
1r!
1u!
0v!
1/
0-
0G
0u
0t
0s
0p
1X
0G!
1F!
1C!
0>
0=
0<
09
1H
0v
1u
1r
0?
1>
1;
#200000
0!
0"
1#
0U
0Y
1\
1Z!
0R!
0O!
1Q!
0W!
0X!
1\!
1b!
1e!
0g!
08!
16!
13!
10!
0/!
1.!
1X!
0[!
1q!
0r!
1t!
0u!
0g
1e
1b
1[
0X
1T
0F!
1E!
0C!
1B!
1/!
0\!
0q!
1s!
1u!
1v!
00
1.
1+
1I
0H
1G
0u
1t
0r
1q
1X
1G!
1F!
1D!
0B!
00!
0s!
0v!
0>
1=
0;
1:
1H
1v
1u
1s
0q
0[
0G!
0D!
1?
1>
1<
0:
0I
0v
0s
0?
0<
#210000
1!
1U
1O!
0Q!
1W!
0b!
1c!
0e!
06!
14!
03!
0.!
0X!
1[!
1r!
0t!
0e
1c
0b
0T
0E!
1C!
0/!
1\!
0r!
0u!
1v!
0.
1,
0+
0G
0t
1r
0X
1G!
0F!
0C!
10!
1p!
1s!
1t!
0v!
0=
1;
0H
1v
0u
0r
1[
0G!
1E!
1D!
1A!
1?
0>
0;
1I
0v
1t
1s
1p
0?
1=
1<
19
#220000
0!
1"
0U
1Y
1R!
0O!
1Q!
0W!
1X!
0f!
07!
1/!
1.!
0X!
0p!
1u!
1v!
0f
1X
1T
1G!
1F!
0A!
0/!
1q!
0s!
0u!
0v!
0/
1H
1G
1v
1u
0p
0X
0G!
0F!
0D!
1B!
1?
1>
09
0H
0v
0u
0s
1q
0?
0>
0<
1:
#230000
1!
1U
1O!
0Q!
1W!
0c!
1e!
1f!
1g!
1h!
19!
18!
17!
16!
04!
0.!
1X!
1p!
0q!
1s!
1h
1g
1f
1e
0c
0T
1D!
0B!
1A!
1/!
0p!
1q!
0s!
0t!
11
10
1/
1.
0,
0G
1s
0q
1p
1X
0E!
0D!
1B!
0A!
1<
0:
19
1H
0t
0s
1q
0p
0=
0<
1:
09
#240000
0!
0"
0#
1$
0U
0Y
0\
1_
1]!
0Z!
0R!
0O!
1Q!
0W!
0X!
0\!
1`!
0e!
0f!
0g!
0h!
09!
08!
07!
06!
11!
00!
0/!
1.!
1X!
0[!
0q!
1t!
0h
0g
0f
0e
1^
0[
0X
1T
1E!
0B!
1/!
1\!
0^!
1p!
1q!
0t!
01
00
0/
0.
1J
0I
0H
1G
1t
0q
1X
0E!
1B!
1A!
10!
0`!
0p!
1r!
1s!
1=
0:
1H
0t
1q
1p
1[
1D!
1C!
0A!
01!
0q!
0r!
1t!
1u!
1v!
0=
1:
19
1I
1s
1r
0p
0^
1G!
1F!
1E!
0C!
0B!
1<
1;
09
0J
1v
1u
1t
0r
0q
1?
1>
1=
0;
0:
#250000
1!
1U
1O!
0Q!
1W!
1f!
17!
0.!
0X!
1[!
1q!
0s!
0t!
0u!
0v!
1f
0T
0G!
0F!
0E!
0D!
1B!
0/!
0\!
1^!
1p!
0q!
1s!
1t!
1/
0G
0v
0u
0t
0s
1q
0X
1E!
1D!
0B!
1A!
00!
1`!
0p!
0s!
0t!
1v!
0?
0>
0=
0<
1:
0H
1t
1s
0q
1p
0[
1G!
0E!
0D!
0A!
11!
0v!
1=
1<
0:
19
0I
1v
0t
0s
0p
1^
0G!
1?
0=
0<
09
1J
0v
0?
#260000
0!
1"
0U
1Y
1R!
0O!
1Q!
0W!
1X!
1e!
0f!
07!
16!
1/!
1.!
0X!
1p!
1q!
0f
1e
1X
1T
1B!
1A!
0/!
0p!
0q!
1t!
0/
1.
1H
1G
1q
1p
0X
1E!
0B!
0A!
1:
19
0H
1t
0q
0p
1=
0:
09
#270000
1!
1U
1O!
0Q!
1W!
1b!
1c!
0e!
06!
14!
13!
0.!
1X!
0t!
0e
1c
1b
0T
0E!
1/!
1s!
0.
1,
1+
0G
0t
1X
1D!
0=
1H
1s
1<
#280000
0!
0"
1#
0U
0Y
1\
1Z!
0R!
0O!
1Q!
0W!
0X!
1\!
0b!
1d!
1h!
19!
15!
03!
10!
0/!
1.!
1X!
0[!
1p!
0s!
1u!
1h
1d
0b
1[
0X
1T
1F!
0D!
1A!
1/!
0\!
0p!
1q!
1r!
1s!
0u!
11
1-
0+
1I
0H
1G
1u
0s
1p
1X
0F!
1D!
1C!
1B!
0A!
00!
1p!
0r!
0s!
1>
0<
19
1H
0u
1s
1r
1q
0p
0[
0D!
0C!
1A!
0>
1<
1;
1:
09
0I
0s
0r
1p
0<
0;
19
#290000
1!
1U
1O!
0Q!
1W!
1b!
0c!
0d!
1g!
0h!
09!
18!
05!
04!
13!
0.!
0X!
1[!
0p!
0q!
1s!
0h
1g
0d
0c
1b
0T
1D!
0B!
0A!
0/!
1\!
0s!
01
10
0-
0,
1+
0G
1s
0q
0p
0X
0D!
10!
1q!
1r!
1v!
1<
0:
09
0H
0s
1[
1G!
1C!
1B!
0<
1I
1v
1r
1q
1?
1;
1:
#300000
0!
1"
0U
1Y
1R!
0O!
1Q!
0W!
1X!
0b!
1c!
1d!
0g!
08!
15!
14!
03!
1/!
1.!
0X!
1s!
0v!
0g
1d
1c
0b
1X
1T
0G!
1D!
0/!
1p!
0q!
0r!
0s!
1u!
00
1-
1,
0+
1H
1G
0v
1s
0X
1F!
0D!
0C!
0B!
1A!
0?
1<
0H
1u
0s
0r
0q
1p
1>
0<
0;
0:
19
#310000
1!
1U
1O!
0Q!
1W!
1e!
16!
0.!
1X!
0p!
1q!
1r!
0u!
1v!
1e
0T
1G!
0F!
1C!
1B!
0A!
1/!
0v!
1.
0G
1v
0u
1r
1q
0p
1X
0G!
1?
0>
1;
1:
09
1H
0v
0?
#320000
0!
0"
0#
0$
0%
1&
0U
0Y
0\
0_
0W
1Z
1T!
0P!
0]!
0Z!
0R!
0O!
0X!
0\!
0`!
0c!
0d!
0e!
1h!
0U!
0i!
1k!
0l!
0m!
0o!
0@!
0>!
0=!
1<!
0:!
19!
06!
05!
04!
01!
00!
0/!
1X!
0[!
0q!
0r!
1v!
0o
0m
0l
1k
0i
1h
0e
0d
0c
0^
0[
0X
1G!
0C!
0B!
1/!
1\!
0^!
1r!
1u!
0v!
08
06
05
14
02
11
0.
0-
0,
0J
0I
0H
1v
0r
0q
1X
0G!
1F!
1C!
10!
1`!
0a!
1q!
0r!
0u!
1?
0;
0:
1H
0v
1u
1r
1[
0F!
0C!
1B!
02!
0H!
0K!
0L!
0M!
11!
1r!
0?
1>
1;
1I
0u
0r
1q
0a
0w
0z
0{
0|
1^
1C!
0>
0;
1:
0*
0@
0C
0D
0E
1J
1r
1;
#330000
1!
1U
1O!
1Q!
1V!
1b!
1e!
1f!
1g!
18!
17!
16!
13!
1.!
1s!
1g
1f
1e
1b
1T
1D!
10
1/
1.
1+
1G
1s
1<
#340000
0!
1"
0U
1Y
1R!
0O!
0Q!
0V!
0X!
1[!
0b!
1d!
0e!
0f!
0h!
09!
07!
06!
15!
03!
0/!
0.!
0\!
1^!
0s!
1v!
0h
0f
0e
1d
0b
0X
0T
1G!
0D!
00!
0`!
1a!
0q!
0r!
0v!
01
0/
0.
1-
0+
0H
0G
1v
0s
0[
0G!
0C!
0B!
12!
1H!
1K!
1L!
1M!
01!
1v!
1?
0<
0I
0v
0r
0q
1a
1w
1z
1{
1|
0^
1G!
0?
0;
0:
1*
1@
1C
1D
1E
0J
1v
1?
#350000
1!
1U
1O!
1Q!
1V!
0d!
1f!
17!
05!
1.!
1p!
1s!
1t!
1u!
1f
0d
1T
1F!
1E!
1D!
1A!
1/
0-
1G
1u
1t
1s
1p
1>
1=
1<
19
#360000
0!
0"
1#
0U
0Y
1\
1Z!
0R!
0O!
0Q!
0V!
1X!
0[!
1\!
1b!
1e!
0g!
08!
16!
13!
10!
1/!
0.!
0\!
0p!
1q!
0s!
0t!
0u!
0v!
0g
1e
1b
1[
1X
0T
0G!
0F!
0E!
0D!
1B!
0A!
00!
0q!
1r!
1u!
00
1.
1+
1I
1H
0G
0v
0u
0t
0s
1q
0p
0[
1F!
1C!
0B!
0?
0>
0=
0<
1:
09
0I
1u
1r
0q
1>
1;
0:
#370000
1!
1U
1O!
1Q!
1V!
0b!
1c!
0e!
06!
14!
03!
1.!
0r!
1t!
0e
1c
0b
1T
1E!
0C!
0.
1,
0+
1G
1t
0r
1=
0;
#380000
0!
1"
0U
1Y
1R!
0O!
0Q!
0V!
0X!
1[!
0f!
07!
0/!
0.!
1\!
0t!
0u!
1v!
0f
0X
0T
1G!
0F!
0E!
10!
1p!
1s!
1t!
0v!
0/
0H
0G
1v
0u
0t
1[
0G!
1E!
1D!
1A!
1?
0>
0=
1I
0v
1t
1s
1p
0?
1=
1<
19
#390000
1!
1U
1O!
1Q!
1V!
0c!
1e!
1f!
1g!
1h!
19!
18!
17!
16!
04!
1.!
0p!
1q!
0s!
1h
1g
1f
1e
0c
1T
0D!
1B!
0A!
11
10
1/
1.
0,
1G
0s
1q
0p
0<
1:
09
#400000
0!
0"
0#
1$
0U
0Y
0\
1_
1]!
0Z!
0R!
0O!
0Q!
0V!
1X!
0[!
0\!
1`!
0e!
0f!
0g!
0h!
09!
08!
07!
06!
11!
00!
1/!
0.!
1\!
0^!
0q!
1s!
0t!
0h
0g
0f
0e
1^
0[
1X
0T
0E!
1D!
0B!
10!
0`!
1q!
1r!
0s!
01
00
0/
0.
1J
0I
1H
0G
0t
1s
0q
1[
0D!
1C!
1B!
01!
0r!
0=
1<
0:
1I
0s
1r
1q
0^
0C!
0<
1;
1:
0J
0r
0;
#410000
1!
1U
1O!
1Q!
1V!
1f!
17!
1.!
0q!
1s!
1t!
1u!
1v!
1f
1T
1G!
1F!
1E!
1D!
0B!
1/
1G
1v
1u
1t
1s
0q
1?
1>
1=
1<
0:
#420000
0!
1"
0U
1Y
1R!
0O!
0Q!
0V!
0X!
1[!
1e!
0f!
07!
16!
0/!
0.!
0\!
1^!
1p!
0u!
0v!
0f
1e
0X
0T
0G!
0F!
1A!
00!
1`!
0p!
0s!
0t!
1v!
0/
1.
0H
0G
0v
0u
1p
0[
1G!
0E!
0D!
0A!
11!
0v!
0?
0>
19
0I
1v
0t
0s
0p
1^
0G!
1?
0=
0<
09
1J
0v
0?
#430000
1!
1U
1O!
1Q!
1V!
1b!
1c!
0e!
06!
14!
13!
1.!
1t!
0e
1c
1b
1T
1E!
0.
1,
1+
1G
1t
1=
#440000
0!
0"
1#
0U
0Y
1\
1Z!
0R!
0O!
0Q!
0V!
1X!
0[!
1\!
0b!
1d!
1h!
19!
15!
03!
10!
1/!
0.!
0\!
1q!
1r!
0t!
1h
1d
0b
1[
1X
0T
0E!
1C!
1B!
00!
0q!
0r!
1s!
11
1-
0+
1I
1H
0G
0t
1r
1q
0[
1D!
0C!
0B!
0=
1;
1:
0I
1s
0r
0q
1<
0;
0:
#450000
1!
1U
1O!
1Q!
1V!
1b!
0c!
0d!
1g!
0h!
09!
18!
05!
04!
13!
1.!
1p!
1q!
0s!
0h
1g
0d
0c
1b
1T
0D!
1B!
1A!
01
10
0-
0,
1+
1G
0s
1q
1p
0<
1:
19
#460000
0!
1"
0U
1Y
1R!
0O!
0Q!
0V!
0X!
1[!
0b!
1c!
1d!
0g!
08!
15!
14!
03!
0/!
0.!
1\!
0p!
0q!
0g
1d
1c
0b
0X
0T
0B!
0A!
10!
1q!
1r!
1v!
00
1-
1,
0+
0H
0G
0q
0p
1[
1G!
1C!
1B!
0:
09
1I
1v
1r
1q
1?
1;
1:
#470000
1!
1U
1O!
1Q!
1V!
1e!
16!
1.!
1p!
0q!
0r!
1u!
0v!
1e
1T
0G!
1F!
0C!
0B!
1A!
1.
1G
0v
1u
0r
0q
1p
0?
1>
0;
0:
19
#480000
0!
0"
0#
0$
1%
0U
0Y
0\
0_
1W
1P!
0]!
0Z!
0R!
0O!
1X!
0[!
0\!
0`!
0c!
0d!
0e!
1h!
0V!
0W!
0k!
1m!
1>!
0<!
19!
06!
05!
04!
01!
00!
1/!
0X!
1\!
0^!
0p!
1t!
1m
0k
1h
0e
0d
0c
0^
0[
1X
1E!
0A!
10!
0/!
1`!
0a!
1q!
0u!
16
04
11
0.
0-
0,
0J
0I
1H
1t
0p
1[
0X
0F!
1B!
02!
0H!
0K!
0L!
0M!
11!
1p!
0q!
0t!
1u!
1=
09
1I
0H
0u
1q
0a
0w
0z
0{
0|
1^
1F!
0E!
0B!
1A!
0>
1:
0*
0@
0C
0D
0E
1J
1u
0t
0q
1p
1>
0=
0:
19
#490000
1!
1U
1O!
0Q!
1W!
1b!
1e!
1f!
1g!
18!
17!
16!
13!
0.!
1X!
0p!
1q!
1r!
0u!
1v!
1g
1f
1e
1b
0T
1G!
0F!
1C!
1B!
0A!
1/!
0v!
10
1/
1.
1+
0G
1v
0u
1r
1q
0p
1X
0G!
1?
0>
1;
1:
09
1H
0v
0?
#500000
0!
1"
0U
1Y
1R!
0O!
1Q!
0W!
0X!
1[!
0b!
1d!
0e!
0f!
0h!
09!
07!
06!
15!
03!
0/!
1.!
0\!
1^!
1X!
0[!
1p!
0q!
0r!
1u!
0h
0f
0e
1d
0b
0X
1T
1F!
0C!
0B!
1A!
1/!
00!
1\!
0^!
0`!
1a!
1q!
0u!
01
0/
0.
1-
0+
0H
1G
1u
0r
0q
1p
1X
0[
0F!
1B!
12!
1H!
1K!
1L!
1M!
01!
10!
1`!
0a!
0p!
0q!
1s!
1t!
1u!
1v!
1>
0;
0:
19
1H
0I
0u
1q
1a
1w
1z
1{
1|
0^
1[
1G!
1F!
1E!
1D!
0B!
0A!
02!
0H!
0K!
0L!
0M!
11!
1q!
1r!
0t!
0u!
0v!
0>
1:
1*
1@
1C
1D
1E
0J
1I
1v
1u
1t
1s
0q
0p
0a
0w
0z
0{
0|
1^
0G!
0F!
0E!
1C!
1B!
1?
1>
1=
1<
0:
09
0*
0@
0C
0D
0E
1J
0v
0u
0t
1r
1q
0?
0>
0=
1;
1:
#510000
1!
1U
1O!
0Q!
1W!
0d!
1f!
17!
05!
0.!
0X!
1[!
0s!
1f
0d
0T
0D!
0/!
0\!
1^!
1v!
1/
0-
0G
0s
0X
1G!
00!
0`!
1a!
0q!
0r!
0v!
0<
0H
1v
0[
0G!
0C!
0B!
12!
1H!
1K!
1L!
1M!
01!
1v!
1?
0I
0v
0r
0q
1a
1w
1z
1{
1|
0^
1G!
0?
0;
0:
1*
1@
1C
1D
1E
0J
1v
1?
